%!PS-Adobe-3.0 EPSF-3.0
%%Creator: (MATLAB, The Mathworks, Inc. Version 8.4.0.150421 \(R2014b\). Operating System: Windows 8)
%%Title: ./2D_mask.eps
%%CreationDate: 2017-08-31T12:09:56
%%Pages: (atend)
%%BoundingBox: (atend)
%%LanguageLevel: 3
%%EndComments
%%BeginProlog
%%BeginResource: procset (Apache XML Graphics Std ProcSet) 1.2 0
%%Version: 1.2 0
%%Copyright: (Copyright 2001-2003,2010 The Apache Software Foundation. License terms: http://www.apache.org/licenses/LICENSE-2.0)
/bd{bind def}bind def
/ld{load def}bd
/GR/grestore ld
/M/moveto ld
/LJ/setlinejoin ld
/C/curveto ld
/f/fill ld
/LW/setlinewidth ld
/GC/setgray ld
/t/show ld
/N/newpath ld
/CT/concat ld
/cp/closepath ld
/S/stroke ld
/L/lineto ld
/CC/setcmykcolor ld
/A/ashow ld
/GS/gsave ld
/RC/setrgbcolor ld
/RM/rmoveto ld
/ML/setmiterlimit ld
/re {4 2 roll M
1 index 0 rlineto
0 exch rlineto
neg 0 rlineto
cp } bd
/_ctm matrix def
/_tm matrix def
/BT { _ctm currentmatrix pop matrix _tm copy pop 0 0 moveto } bd
/ET { _ctm setmatrix } bd
/iTm { _ctm setmatrix _tm concat } bd
/Tm { _tm astore pop iTm 0 0 moveto } bd
/ux 0.0 def
/uy 0.0 def
/F {
  /Tp exch def
  /Tf exch def
  Tf findfont Tp scalefont setfont
  /cf Tf def  /cs Tp def
} bd
/ULS {currentpoint /uy exch def /ux exch def} bd
/ULE {
  /Tcx currentpoint pop def
  gsave
  newpath
  cf findfont cs scalefont dup
  /FontMatrix get 0 get /Ts exch def /FontInfo get dup
  /UnderlinePosition get Ts mul /To exch def
  /UnderlineThickness get Ts mul /Tt exch def
  ux uy To add moveto  Tcx uy To add lineto
  Tt setlinewidth stroke
  grestore
} bd
/OLE {
  /Tcx currentpoint pop def
  gsave
  newpath
  cf findfont cs scalefont dup
  /FontMatrix get 0 get /Ts exch def /FontInfo get dup
  /UnderlinePosition get Ts mul /To exch def
  /UnderlineThickness get Ts mul /Tt exch def
  ux uy To add cs add moveto Tcx uy To add cs add lineto
  Tt setlinewidth stroke
  grestore
} bd
/SOE {
  /Tcx currentpoint pop def
  gsave
  newpath
  cf findfont cs scalefont dup
  /FontMatrix get 0 get /Ts exch def /FontInfo get dup
  /UnderlinePosition get Ts mul /To exch def
  /UnderlineThickness get Ts mul /Tt exch def
  ux uy To add cs 10 mul 26 idiv add moveto Tcx uy To add cs 10 mul 26 idiv add lineto
  Tt setlinewidth stroke
  grestore
} bd
/QT {
/Y22 exch store
/X22 exch store
/Y21 exch store
/X21 exch store
currentpoint
/Y21 load 2 mul add 3 div exch
/X21 load 2 mul add 3 div exch
/X21 load 2 mul /X22 load add 3 div
/Y21 load 2 mul /Y22 load add 3 div
/X22 load /Y22 load curveto
} bd
/SSPD {
dup length /d exch dict def
{
/v exch def
/k exch def
currentpagedevice k known {
/cpdv currentpagedevice k get def
v cpdv ne {
/upd false def
/nullv v type /nulltype eq def
/nullcpdv cpdv type /nulltype eq def
nullv nullcpdv or
{
/upd true def
} {
/sametype v type cpdv type eq def
sametype {
v type /arraytype eq {
/vlen v length def
/cpdvlen cpdv length def
vlen cpdvlen eq {
0 1 vlen 1 sub {
/i exch def
/obj v i get def
/cpdobj cpdv i get def
obj cpdobj ne {
/upd true def
exit
} if
} for
} {
/upd true def
} ifelse
} {
v type /dicttype eq {
v {
/dv exch def
/dk exch def
/cpddv cpdv dk get def
dv cpddv ne {
/upd true def
exit
} if
} forall
} {
/upd true def
} ifelse
} ifelse
} if
} ifelse
upd true eq {
d k v put
} if
} if
} if
} forall
d length 0 gt {
d setpagedevice
} if
} bd
%%EndResource
%%BeginResource: procset (Apache XML Graphics EPS ProcSet) 1.0 0
%%Version: 1.0 0
%%Copyright: (Copyright 2002-2003 The Apache Software Foundation. License terms: http://www.apache.org/licenses/LICENSE-2.0)
/BeginEPSF { %def
/b4_Inc_state save def         % Save state for cleanup
/dict_count countdictstack def % Count objects on dict stack
/op_count count 1 sub def      % Count objects on operand stack
userdict begin                 % Push userdict on dict stack
/showpage { } def              % Redefine showpage, { } = null proc
0 setgray 0 setlinecap         % Prepare graphics state
1 setlinewidth 0 setlinejoin
10 setmiterlimit [ ] 0 setdash newpath
/languagelevel where           % If level not equal to 1 then
{pop languagelevel             % set strokeadjust and
1 ne                           % overprint to their defaults.
{false setstrokeadjust false setoverprint
} if
} if
} bd
/EndEPSF { %def
count op_count sub {pop} repeat            % Clean up stacks
countdictstack dict_count sub {end} repeat
b4_Inc_state restore
} bd
%%EndResource
%FOPBeginFontDict
%%IncludeResource: font Courier-Bold
%%IncludeResource: font Helvetica
%%IncludeResource: font Courier-BoldOblique
%%IncludeResource: font Courier-Oblique
%%IncludeResource: font Times-Roman
%%IncludeResource: font Helvetica-BoldOblique
%%IncludeResource: font Helvetica-Bold
%%IncludeResource: font Helvetica-Oblique
%%IncludeResource: font Times-BoldItalic
%%IncludeResource: font Courier
%%IncludeResource: font Times-Italic
%%IncludeResource: font Times-Bold
%%IncludeResource: font Symbol
%%IncludeResource: font ZapfDingbats
%FOPEndFontDict
%%BeginResource: encoding WinAnsiEncoding
/WinAnsiEncoding [
/.notdef /.notdef /.notdef /.notdef /.notdef
/.notdef /.notdef /.notdef /.notdef /.notdef
/.notdef /.notdef /.notdef /.notdef /.notdef
/.notdef /.notdef /.notdef /.notdef /.notdef
/.notdef /.notdef /.notdef /.notdef /.notdef
/.notdef /.notdef /.notdef /.notdef /.notdef
/.notdef /.notdef /space /exclam /quotedbl
/numbersign /dollar /percent /ampersand /quotesingle
/parenleft /parenright /asterisk /plus /comma
/hyphen /period /slash /zero /one
/two /three /four /five /six
/seven /eight /nine /colon /semicolon
/less /equal /greater /question /at
/A /B /C /D /E
/F /G /H /I /J
/K /L /M /N /O
/P /Q /R /S /T
/U /V /W /X /Y
/Z /bracketleft /backslash /bracketright /asciicircum
/underscore /quoteleft /a /b /c
/d /e /f /g /h
/i /j /k /l /m
/n /o /p /q /r
/s /t /u /v /w
/x /y /z /braceleft /bar
/braceright /asciitilde /bullet /Euro /bullet
/quotesinglbase /florin /quotedblbase /ellipsis /dagger
/daggerdbl /circumflex /perthousand /Scaron /guilsinglleft
/OE /bullet /Zcaron /bullet /bullet
/quoteleft /quoteright /quotedblleft /quotedblright /bullet
/endash /emdash /asciitilde /trademark /scaron
/guilsinglright /oe /bullet /zcaron /Ydieresis
/space /exclamdown /cent /sterling /currency
/yen /brokenbar /section /dieresis /copyright
/ordfeminine /guillemotleft /logicalnot /sfthyphen /registered
/macron /degree /plusminus /twosuperior /threesuperior
/acute /mu /paragraph /middot /cedilla
/onesuperior /ordmasculine /guillemotright /onequarter /onehalf
/threequarters /questiondown /Agrave /Aacute /Acircumflex
/Atilde /Adieresis /Aring /AE /Ccedilla
/Egrave /Eacute /Ecircumflex /Edieresis /Igrave
/Iacute /Icircumflex /Idieresis /Eth /Ntilde
/Ograve /Oacute /Ocircumflex /Otilde /Odieresis
/multiply /Oslash /Ugrave /Uacute /Ucircumflex
/Udieresis /Yacute /Thorn /germandbls /agrave
/aacute /acircumflex /atilde /adieresis /aring
/ae /ccedilla /egrave /eacute /ecircumflex
/edieresis /igrave /iacute /icircumflex /idieresis
/eth /ntilde /ograve /oacute /ocircumflex
/otilde /odieresis /divide /oslash /ugrave
/uacute /ucircumflex /udieresis /yacute /thorn
/ydieresis
] def
%%EndResource
%FOPBeginFontReencode
/Courier-Bold findfont
dup length dict begin
  {1 index /FID ne {def} {pop pop} ifelse} forall
  /Encoding WinAnsiEncoding def
  currentdict
end
/Courier-Bold exch definefont pop
/Helvetica findfont
dup length dict begin
  {1 index /FID ne {def} {pop pop} ifelse} forall
  /Encoding WinAnsiEncoding def
  currentdict
end
/Helvetica exch definefont pop
/Courier-BoldOblique findfont
dup length dict begin
  {1 index /FID ne {def} {pop pop} ifelse} forall
  /Encoding WinAnsiEncoding def
  currentdict
end
/Courier-BoldOblique exch definefont pop
/Courier-Oblique findfont
dup length dict begin
  {1 index /FID ne {def} {pop pop} ifelse} forall
  /Encoding WinAnsiEncoding def
  currentdict
end
/Courier-Oblique exch definefont pop
/Times-Roman findfont
dup length dict begin
  {1 index /FID ne {def} {pop pop} ifelse} forall
  /Encoding WinAnsiEncoding def
  currentdict
end
/Times-Roman exch definefont pop
/Helvetica-BoldOblique findfont
dup length dict begin
  {1 index /FID ne {def} {pop pop} ifelse} forall
  /Encoding WinAnsiEncoding def
  currentdict
end
/Helvetica-BoldOblique exch definefont pop
/Helvetica-Bold findfont
dup length dict begin
  {1 index /FID ne {def} {pop pop} ifelse} forall
  /Encoding WinAnsiEncoding def
  currentdict
end
/Helvetica-Bold exch definefont pop
/Helvetica-Oblique findfont
dup length dict begin
  {1 index /FID ne {def} {pop pop} ifelse} forall
  /Encoding WinAnsiEncoding def
  currentdict
end
/Helvetica-Oblique exch definefont pop
/Times-BoldItalic findfont
dup length dict begin
  {1 index /FID ne {def} {pop pop} ifelse} forall
  /Encoding WinAnsiEncoding def
  currentdict
end
/Times-BoldItalic exch definefont pop
/Courier findfont
dup length dict begin
  {1 index /FID ne {def} {pop pop} ifelse} forall
  /Encoding WinAnsiEncoding def
  currentdict
end
/Courier exch definefont pop
/Times-Italic findfont
dup length dict begin
  {1 index /FID ne {def} {pop pop} ifelse} forall
  /Encoding WinAnsiEncoding def
  currentdict
end
/Times-Italic exch definefont pop
/Times-Bold findfont
dup length dict begin
  {1 index /FID ne {def} {pop pop} ifelse} forall
  /Encoding WinAnsiEncoding def
  currentdict
end
/Times-Bold exch definefont pop
%FOPEndFontReencode
%%EndProlog
%%Page: 1 1
%%PageBoundingBox: 0 0 2268 1276
%%BeginPageSetup
[1 0 0 -1 0 1276] CT
%%EndPageSetup
GS
[1.47638 0 0 1.47638 0 0.40942] CT
0.997 GC
N
0 0 1536 864 re
f
GR
GS
[1.47638 0 0 1.47638 0 0.40942] CT
0.997 GC
N
0 0 1536 864 re
f
GR
GS
[1.47638 0 0 1.47638 0 0.40942] CT
0.997 GC
N
1147 65 M
444 65 L
444 768 L
1147 768 L
cp
f
GR
GS
[4.04673 0 0 4.04673 657.54688 98.40908] CT
[1 0 0 1 0 0] CT
N
0 256 M
0 0 L
256 0 L
256 256 L
cp
clip
GS
0 0 translate
256 256 scale
%AXGBeginBitmap: java.awt.image.BufferedImage
{{
/RawData currentfile /ASCII85Decode filter def
/Data RawData /FlateDecode filter def
/DeviceGray setcolorspace
<<
  /Decode [0 1]
  /BitsPerComponent 8
  /Width 256
  /ImageType 1
  /DataSource Data
  /ImageMatrix [256 0 0 256 0 0]
  /Height 256
>> image
} stopped {handleerror} if
  RawData flushfile
} exec
Gb"0T_$L)q$j3d$^N@%PafcCfB`d2L<<*"!zzzzzzzKC8_%@IS`:rp5(6zz!:J:-SGKSh!<<*"zzzz@(
?@LZl8'~>

%AXGEndBitmap
GR
GR
GS
[1.47638 0 0 1.47638 1174.45867 1209.82062] CT
0 GC
/Helvetica-Bold 37 F
GS
[1 0 0 1 0 0] CT
-49.339 37.199 moveto 
1 -1 scale
(x \(px\)) t 
GR
GR
GS
[1.47638 0 0 1.47638 0 0.40942] CT
0 GC
2 setlinecap
10.0 ML
N
444 768 M
1147 768 L
S
GR
GS
[1.47638 0 0 1.47638 0 0.40942] CT
0 GC
2 setlinecap
10.0 ML
N
444 65 M
1147 65 L
S
GR
GS
[1.47638 0 0 1.47638 0 0.40942] CT
0 GC
2 setlinecap
10.0 ML
N
444 768 M
444 760.97 L
S
GR
GS
[1.47638 0 0 1.47638 0 0.40942] CT
0 GC
2 setlinecap
10.0 ML
N
444 65 M
444 72.03 L
S
GR
GS
[1.47638 0 0 1.47638 0 0.40942] CT
0 GC
2 setlinecap
10.0 ML
N
581.843 768 M
581.843 760.97 L
S
GR
GS
[1.47638 0 0 1.47638 0 0.40942] CT
0 GC
2 setlinecap
10.0 ML
N
581.843 65 M
581.843 72.03 L
S
GR
GS
[1.47638 0 0 1.47638 0 0.40942] CT
0 GC
2 setlinecap
10.0 ML
N
719.686 768 M
719.686 760.97 L
S
GR
GS
[1.47638 0 0 1.47638 0 0.40942] CT
0 GC
2 setlinecap
10.0 ML
N
719.686 65 M
719.686 72.03 L
S
GR
GS
[1.47638 0 0 1.47638 0 0.40942] CT
0 GC
2 setlinecap
10.0 ML
N
857.529 768 M
857.529 760.97 L
S
GR
GS
[1.47638 0 0 1.47638 0 0.40942] CT
0 GC
2 setlinecap
10.0 ML
N
857.529 65 M
857.529 72.03 L
S
GR
GS
[1.47638 0 0 1.47638 0 0.40942] CT
0 GC
2 setlinecap
10.0 ML
N
995.373 768 M
995.373 760.97 L
S
GR
GS
[1.47638 0 0 1.47638 0 0.40942] CT
0 GC
2 setlinecap
10.0 ML
N
995.373 65 M
995.373 72.03 L
S
GR
GS
[1.47638 0 0 1.47638 0 0.40942] CT
0 GC
2 setlinecap
10.0 ML
N
1133.216 768 M
1133.216 760.97 L
S
GR
GS
[1.47638 0 0 1.47638 0 0.40942] CT
0 GC
2 setlinecap
10.0 ML
N
1133.216 65 M
1133.216 72.03 L
S
GR
GS
[1.47638 0 0 1.47638 655.51182 1148.0473] CT
0 GC
/Helvetica-Bold 33 F
GS
[1 0 0 1 0 0] CT
-9.177 33.177 moveto 
1 -1 scale
(0) t 
GR
GR
GS
[1.47638 0 0 1.47638 859.02039 1148.0473] CT
0 GC
/Helvetica-Bold 33 F
GS
[1 0 0 1 0 0] CT
-18.353 33.177 moveto 
1 -1 scale
(50) t 
GR
GR
GS
[1.47638 0 0 1.47638 1062.52896 1148.0473] CT
0 GC
/Helvetica-Bold 33 F
GS
[1 0 0 1 0 0] CT
-27.53 33.177 moveto 
1 -1 scale
(100) t 
GR
GR
GS
[1.47638 0 0 1.47638 1266.03754 1148.0473] CT
0 GC
/Helvetica-Bold 33 F
GS
[1 0 0 1 0 0] CT
-27.53 33.177 moveto 
1 -1 scale
(150) t 
GR
GR
GS
[1.47638 0 0 1.47638 1469.54611 1148.0473] CT
0 GC
/Helvetica-Bold 33 F
GS
[1 0 0 1 0 0] CT
-27.53 33.177 moveto 
1 -1 scale
(200) t 
GR
GR
GS
[1.47638 0 0 1.47638 1673.05469 1148.0473] CT
0 GC
/Helvetica-Bold 33 F
GS
[1 0 0 1 0 0] CT
-27.53 33.177 moveto 
1 -1 scale
(250) t 
GR
GR
GS
[0 -1.47638 1.47638 0 554.53875 615.32085] CT
0 GC
/Helvetica-Bold 37 F
GS
[1 0 0 1 0 0] CT
-49.339 -8.34 moveto 
1 -1 scale
(y \(px\)) t 
GR
GR
GS
[1.47638 0 0 1.47638 0 0.40942] CT
0 GC
2 setlinecap
10.0 ML
N
444 65 M
444 768 L
S
GR
GS
[1.47638 0 0 1.47638 0 0.40942] CT
0 GC
2 setlinecap
10.0 ML
N
1147 65 M
1147 768 L
S
GR
GS
[1.47638 0 0 1.47638 0 0.40942] CT
0 GC
2 setlinecap
10.0 ML
N
444 65 M
451.03 65 L
S
GR
GS
[1.47638 0 0 1.47638 0 0.40942] CT
0 GC
2 setlinecap
10.0 ML
N
1147 65 M
1139.97 65 L
S
GR
GS
[1.47638 0 0 1.47638 0 0.40942] CT
0 GC
2 setlinecap
10.0 ML
N
444 202.843 M
451.03 202.843 L
S
GR
GS
[1.47638 0 0 1.47638 0 0.40942] CT
0 GC
2 setlinecap
10.0 ML
N
1147 202.843 M
1139.97 202.843 L
S
GR
GS
[1.47638 0 0 1.47638 0 0.40942] CT
0 GC
2 setlinecap
10.0 ML
N
444 340.686 M
451.03 340.686 L
S
GR
GS
[1.47638 0 0 1.47638 0 0.40942] CT
0 GC
2 setlinecap
10.0 ML
N
1147 340.686 M
1139.97 340.686 L
S
GR
GS
[1.47638 0 0 1.47638 0 0.40942] CT
0 GC
2 setlinecap
10.0 ML
N
444 478.529 M
451.03 478.529 L
S
GR
GS
[1.47638 0 0 1.47638 0 0.40942] CT
0 GC
2 setlinecap
10.0 ML
N
1147 478.529 M
1139.97 478.529 L
S
GR
GS
[1.47638 0 0 1.47638 0 0.40942] CT
0 GC
2 setlinecap
10.0 ML
N
444 616.373 M
451.03 616.373 L
S
GR
GS
[1.47638 0 0 1.47638 0 0.40942] CT
0 GC
2 setlinecap
10.0 ML
N
1147 616.373 M
1139.97 616.373 L
S
GR
GS
[1.47638 0 0 1.47638 0 0.40942] CT
0 GC
2 setlinecap
10.0 ML
N
444 754.216 M
451.03 754.216 L
S
GR
GS
[1.47638 0 0 1.47638 0 0.40942] CT
0 GC
2 setlinecap
10.0 ML
N
1147 754.216 M
1139.97 754.216 L
S
GR
GS
[1.47638 0 0 1.47638 641.73227 96.37399] CT
0 GC
/Helvetica-Bold 33 F
GS
[1 0 0 1 0 0] CT
-18.353 12.923 moveto 
1 -1 scale
(0) t 
GR
GR
GS
[1.47638 0 0 1.47638 641.73227 299.88257] CT
0 GC
/Helvetica-Bold 33 F
GS
[1 0 0 1 0 0] CT
-36.706 12.923 moveto 
1 -1 scale
(50) t 
GR
GR
GS
[1.47638 0 0 1.47638 641.73227 503.39115] CT
0 GC
/Helvetica-Bold 33 F
GS
[1 0 0 1 0 0] CT
-55.059 12.923 moveto 
1 -1 scale
(100) t 
GR
GR
GS
[1.47638 0 0 1.47638 641.73227 706.89972] CT
0 GC
/Helvetica-Bold 33 F
GS
[1 0 0 1 0 0] CT
-55.059 12.923 moveto 
1 -1 scale
(150) t 
GR
GR
GS
[1.47638 0 0 1.47638 641.73227 910.4083] CT
0 GC
/Helvetica-Bold 33 F
GS
[1 0 0 1 0 0] CT
-55.059 12.923 moveto 
1 -1 scale
(200) t 
GR
GR
GS
[1.47638 0 0 1.47638 641.73227 1113.91687] CT
0 GC
/Helvetica-Bold 33 F
GS
[1 0 0 1 0 0] CT
-55.059 12.923 moveto 
1 -1 scale
(250) t 
GR
GR
%%Trailer
%%BoundingBox: 487 0 1713 1209
%%Pages: 1
%%EOF
