%!PS-Adobe-3.0 EPSF-3.0
%%Creator: cairo 1.15.2 (http://cairographics.org)
%%CreationDate: Tue Apr 18 10:24:47 2017
%%Pages: 1
%%DocumentData: Clean7Bit
%%LanguageLevel: 3
%%BoundingBox: 0 -1 284 114
%%EndComments
%%BeginProlog
save
50 dict begin
/q { gsave } bind def
/Q { grestore } bind def
/cm { 6 array astore concat } bind def
/w { setlinewidth } bind def
/J { setlinecap } bind def
/j { setlinejoin } bind def
/M { setmiterlimit } bind def
/d { setdash } bind def
/m { moveto } bind def
/l { lineto } bind def
/c { curveto } bind def
/h { closepath } bind def
/re { exch dup neg 3 1 roll 5 3 roll moveto 0 rlineto
      0 exch rlineto 0 rlineto closepath } bind def
/S { stroke } bind def
/f { fill } bind def
/f* { eofill } bind def
/n { newpath } bind def
/W { clip } bind def
/W* { eoclip } bind def
/BT { } bind def
/ET { } bind def
/pdfmark where { pop globaldict /?pdfmark /exec load put }
    { globaldict begin /?pdfmark /pop load def /pdfmark
    /cleartomark load def end } ifelse
/BDC { mark 3 1 roll /BDC pdfmark } bind def
/EMC { mark /EMC pdfmark } bind def
/cairo_store_point { /cairo_point_y exch def /cairo_point_x exch def } def
/Tj { show currentpoint cairo_store_point } bind def
/TJ {
  {
    dup
    type /stringtype eq
    { show } { -0.001 mul 0 cairo_font_matrix dtransform rmoveto } ifelse
  } forall
  currentpoint cairo_store_point
} bind def
/cairo_selectfont { cairo_font_matrix aload pop pop pop 0 0 6 array astore
    cairo_font exch selectfont cairo_point_x cairo_point_y moveto } bind def
/Tf { pop /cairo_font exch def /cairo_font_matrix where
      { pop cairo_selectfont } if } bind def
/Td { matrix translate cairo_font_matrix matrix concatmatrix dup
      /cairo_font_matrix exch def dup 4 get exch 5 get cairo_store_point
      /cairo_font where { pop cairo_selectfont } if } bind def
/Tm { 2 copy 8 2 roll 6 array astore /cairo_font_matrix exch def
      cairo_store_point /cairo_font where { pop cairo_selectfont } if } bind def
/g { setgray } bind def
/rg { setrgbcolor } bind def
/d1 { setcachedevice } bind def
%%EndProlog
%%BeginSetup
%%EndSetup
%%Page: 1 1
%%BeginPageSetup
%%PageBoundingBox: 0 -1 284 114
%%EndPageSetup
q 0 -1 284 115 rectclip q
Q q
0 113.4 283.559 -113.398 re W n
q
0 113.4 284 -114 re W n
[ 1 0 0 1 0 -0.600014 ] concat
  q
1 g
0 114 283.559 -113.398 re f*
  Q
Q
/CairoPattern {
  q
q
0 1600 1600 -1600 re W n
[ 100 0 0 -100 0 1600 ] concat
/CairoImageData [
(Gau+L`t&0%&-q.~>)
] def
/CairoImageDataIndex 0 def
/DeviceGray setcolorspace
8 dict dup begin
  /ImageType 1 def
  /Width 16 def
  /Height 16 def
  /Interpolate false def
  /BitsPerComponent 1 def
  /Decode [ 0 1 ] def
  /DataSource {
    CairoImageData CairoImageDataIndex get
    /CairoImageDataIndex CairoImageDataIndex 1 add def
    CairoImageDataIndex CairoImageData length 1 sub gt
     { /CairoImageDataIndex 0 def } if
  } /ASCII85Decode filter /FlateDecode filter def
  /ImageMatrix [ 1 0 0 -1 0 16 ] def
end
image
Q
  Q
} bind def
<< /PatternType 1
   /PaintType 1
   /TilingType 1
   /XStep 1600 /YStep 1600
   /BBox [0 0 1600 1600]
   /PaintProc { pop CairoPattern }
>>
[ 0.00375 0 0 -0.00375 12 113.399976 ]
makepattern setpattern
13.621 105.181 98.758 -98.762 re f*
0 g
3 w
0 J
0 j
[] 0.0 d
10 M q 1 0 0 1 0 113.399986 cm
13.621 -8.219 98.758 -98.762 re S Q
5.04 w
q 1 0 0 1 0 113.399986 cm
13.559 -57.602 m 112.301 -57.602 l S Q
q
0 113.4 284 -114 re W n
[ 1 0 0 1 0 -0.600014 ] concat
  q
/CairoPattern {
  q
q
0 1600 1600 -1600 re W n
[ 100 0 0 -100 0 1600 ] concat
/CairoImageData [
(Gar8O?srbj";oM\\!*[hfkl~>)
] def
/CairoImageDataIndex 0 def
/DeviceGray setcolorspace
8 dict dup begin
  /ImageType 1 def
  /Width 16 def
  /Height 16 def
  /Interpolate false def
  /BitsPerComponent 1 def
  /Decode [ 0 1 ] def
  /DataSource {
    CairoImageData CairoImageDataIndex get
    /CairoImageDataIndex CairoImageDataIndex 1 add def
    CairoImageDataIndex CairoImageData length 1 sub gt
     { /CairoImageDataIndex 0 def } if
  } /ASCII85Decode filter /FlateDecode filter def
  /ImageMatrix [ 1 0 0 -1 0 16 ] def
end
image
Q
  Q
} bind def
<< /PatternType 1
   /PaintType 1
   /TilingType 1
   /XStep 1600 /YStep 1600
   /BBox [0 0 1600 1600]
   /PaintProc { pop CairoPattern }
>>
[ 0.00375 0 0 -0.00375 263.999993 113.99999 ]
makepattern setpattern
171.301 104.82 98.641 -98.762 re f*
  Q
Q
q
0 113.4 284 -114 re W n
[ 1 0 0 1 0 -0.600014 ] concat
  q
0 g
3 w
0 J
0 j
[] 0.0 d
10 M q 1 0 0 1 0 114 cm
171.301 -9.18 98.641 -98.762 re S Q
  Q
Q
q
0 113.4 284 -114 re W n
[ 1 0 0 1 0 -0.600014 ] concat
  q
0 g
5.04 w
0 J
0 j
[] 0.0 d
10 M q 1 0 0 1 0 114 cm
220.559 -9.121 m 220.559 -107.859 l S Q
  Q
Q
Q Q
showpage
%%Trailer
end restore
%%EOF
