%!PS-Adobe-3.0 EPSF-3.0
%%Creator: (MATLAB, The Mathworks, Inc. Version 8.4.0.150421 \(R2014b\). Operating System: Windows 8)
%%Title: ./dataSimulaceOdrazivosti_full_output_30.eps
%%CreationDate: 2017-08-21T11:15:43
%%Pages: (atend)
%%BoundingBox: (atend)
%%LanguageLevel: 3
%%EndComments
%%BeginProlog
%%BeginResource: procset (Apache XML Graphics Std ProcSet) 1.2 0
%%Version: 1.2 0
%%Copyright: (Copyright 2001-2003,2010 The Apache Software Foundation. License terms: http://www.apache.org/licenses/LICENSE-2.0)
/bd{bind def}bind def
/ld{load def}bd
/GR/grestore ld
/M/moveto ld
/LJ/setlinejoin ld
/C/curveto ld
/f/fill ld
/LW/setlinewidth ld
/GC/setgray ld
/t/show ld
/N/newpath ld
/CT/concat ld
/cp/closepath ld
/S/stroke ld
/L/lineto ld
/CC/setcmykcolor ld
/A/ashow ld
/GS/gsave ld
/RC/setrgbcolor ld
/RM/rmoveto ld
/ML/setmiterlimit ld
/re {4 2 roll M
1 index 0 rlineto
0 exch rlineto
neg 0 rlineto
cp } bd
/_ctm matrix def
/_tm matrix def
/BT { _ctm currentmatrix pop matrix _tm copy pop 0 0 moveto } bd
/ET { _ctm setmatrix } bd
/iTm { _ctm setmatrix _tm concat } bd
/Tm { _tm astore pop iTm 0 0 moveto } bd
/ux 0.0 def
/uy 0.0 def
/F {
  /Tp exch def
  /Tf exch def
  Tf findfont Tp scalefont setfont
  /cf Tf def  /cs Tp def
} bd
/ULS {currentpoint /uy exch def /ux exch def} bd
/ULE {
  /Tcx currentpoint pop def
  gsave
  newpath
  cf findfont cs scalefont dup
  /FontMatrix get 0 get /Ts exch def /FontInfo get dup
  /UnderlinePosition get Ts mul /To exch def
  /UnderlineThickness get Ts mul /Tt exch def
  ux uy To add moveto  Tcx uy To add lineto
  Tt setlinewidth stroke
  grestore
} bd
/OLE {
  /Tcx currentpoint pop def
  gsave
  newpath
  cf findfont cs scalefont dup
  /FontMatrix get 0 get /Ts exch def /FontInfo get dup
  /UnderlinePosition get Ts mul /To exch def
  /UnderlineThickness get Ts mul /Tt exch def
  ux uy To add cs add moveto Tcx uy To add cs add lineto
  Tt setlinewidth stroke
  grestore
} bd
/SOE {
  /Tcx currentpoint pop def
  gsave
  newpath
  cf findfont cs scalefont dup
  /FontMatrix get 0 get /Ts exch def /FontInfo get dup
  /UnderlinePosition get Ts mul /To exch def
  /UnderlineThickness get Ts mul /Tt exch def
  ux uy To add cs 10 mul 26 idiv add moveto Tcx uy To add cs 10 mul 26 idiv add lineto
  Tt setlinewidth stroke
  grestore
} bd
/QT {
/Y22 exch store
/X22 exch store
/Y21 exch store
/X21 exch store
currentpoint
/Y21 load 2 mul add 3 div exch
/X21 load 2 mul add 3 div exch
/X21 load 2 mul /X22 load add 3 div
/Y21 load 2 mul /Y22 load add 3 div
/X22 load /Y22 load curveto
} bd
/SSPD {
dup length /d exch dict def
{
/v exch def
/k exch def
currentpagedevice k known {
/cpdv currentpagedevice k get def
v cpdv ne {
/upd false def
/nullv v type /nulltype eq def
/nullcpdv cpdv type /nulltype eq def
nullv nullcpdv or
{
/upd true def
} {
/sametype v type cpdv type eq def
sametype {
v type /arraytype eq {
/vlen v length def
/cpdvlen cpdv length def
vlen cpdvlen eq {
0 1 vlen 1 sub {
/i exch def
/obj v i get def
/cpdobj cpdv i get def
obj cpdobj ne {
/upd true def
exit
} if
} for
} {
/upd true def
} ifelse
} {
v type /dicttype eq {
v {
/dv exch def
/dk exch def
/cpddv cpdv dk get def
dv cpddv ne {
/upd true def
exit
} if
} forall
} {
/upd true def
} ifelse
} ifelse
} if
} ifelse
upd true eq {
d k v put
} if
} if
} if
} forall
d length 0 gt {
d setpagedevice
} if
} bd
%%EndResource
%%BeginResource: procset (Apache XML Graphics EPS ProcSet) 1.0 0
%%Version: 1.0 0
%%Copyright: (Copyright 2002-2003 The Apache Software Foundation. License terms: http://www.apache.org/licenses/LICENSE-2.0)
/BeginEPSF { %def
/b4_Inc_state save def         % Save state for cleanup
/dict_count countdictstack def % Count objects on dict stack
/op_count count 1 sub def      % Count objects on operand stack
userdict begin                 % Push userdict on dict stack
/showpage { } def              % Redefine showpage, { } = null proc
0 setgray 0 setlinecap         % Prepare graphics state
1 setlinewidth 0 setlinejoin
10 setmiterlimit [ ] 0 setdash newpath
/languagelevel where           % If level not equal to 1 then
{pop languagelevel             % set strokeadjust and
1 ne                           % overprint to their defaults.
{false setstrokeadjust false setoverprint
} if
} if
} bd
/EndEPSF { %def
count op_count sub {pop} repeat            % Clean up stacks
countdictstack dict_count sub {end} repeat
b4_Inc_state restore
} bd
%%EndResource
%FOPBeginFontDict
%%IncludeResource: font Courier-Bold
%%IncludeResource: font Helvetica
%%IncludeResource: font Courier-BoldOblique
%%IncludeResource: font Courier-Oblique
%%IncludeResource: font Times-Roman
%%IncludeResource: font Helvetica-BoldOblique
%%IncludeResource: font Helvetica-Bold
%%IncludeResource: font Helvetica-Oblique
%%IncludeResource: font Times-BoldItalic
%%IncludeResource: font Courier
%%IncludeResource: font Times-Italic
%%IncludeResource: font Times-Bold
%%IncludeResource: font Symbol
%%IncludeResource: font ZapfDingbats
%FOPEndFontDict
%%BeginResource: encoding WinAnsiEncoding
/WinAnsiEncoding [
/.notdef /.notdef /.notdef /.notdef /.notdef
/.notdef /.notdef /.notdef /.notdef /.notdef
/.notdef /.notdef /.notdef /.notdef /.notdef
/.notdef /.notdef /.notdef /.notdef /.notdef
/.notdef /.notdef /.notdef /.notdef /.notdef
/.notdef /.notdef /.notdef /.notdef /.notdef
/.notdef /.notdef /space /exclam /quotedbl
/numbersign /dollar /percent /ampersand /quotesingle
/parenleft /parenright /asterisk /plus /comma
/hyphen /period /slash /zero /one
/two /three /four /five /six
/seven /eight /nine /colon /semicolon
/less /equal /greater /question /at
/A /B /C /D /E
/F /G /H /I /J
/K /L /M /N /O
/P /Q /R /S /T
/U /V /W /X /Y
/Z /bracketleft /backslash /bracketright /asciicircum
/underscore /quoteleft /a /b /c
/d /e /f /g /h
/i /j /k /l /m
/n /o /p /q /r
/s /t /u /v /w
/x /y /z /braceleft /bar
/braceright /asciitilde /bullet /Euro /bullet
/quotesinglbase /florin /quotedblbase /ellipsis /dagger
/daggerdbl /circumflex /perthousand /Scaron /guilsinglleft
/OE /bullet /Zcaron /bullet /bullet
/quoteleft /quoteright /quotedblleft /quotedblright /bullet
/endash /emdash /asciitilde /trademark /scaron
/guilsinglright /oe /bullet /zcaron /Ydieresis
/space /exclamdown /cent /sterling /currency
/yen /brokenbar /section /dieresis /copyright
/ordfeminine /guillemotleft /logicalnot /sfthyphen /registered
/macron /degree /plusminus /twosuperior /threesuperior
/acute /mu /paragraph /middot /cedilla
/onesuperior /ordmasculine /guillemotright /onequarter /onehalf
/threequarters /questiondown /Agrave /Aacute /Acircumflex
/Atilde /Adieresis /Aring /AE /Ccedilla
/Egrave /Eacute /Ecircumflex /Edieresis /Igrave
/Iacute /Icircumflex /Idieresis /Eth /Ntilde
/Ograve /Oacute /Ocircumflex /Otilde /Odieresis
/multiply /Oslash /Ugrave /Uacute /Ucircumflex
/Udieresis /Yacute /Thorn /germandbls /agrave
/aacute /acircumflex /atilde /adieresis /aring
/ae /ccedilla /egrave /eacute /ecircumflex
/edieresis /igrave /iacute /icircumflex /idieresis
/eth /ntilde /ograve /oacute /ocircumflex
/otilde /odieresis /divide /oslash /ugrave
/uacute /ucircumflex /udieresis /yacute /thorn
/ydieresis
] def
%%EndResource
%FOPBeginFontReencode
/Courier-Bold findfont
dup length dict begin
  {1 index /FID ne {def} {pop pop} ifelse} forall
  /Encoding WinAnsiEncoding def
  currentdict
end
/Courier-Bold exch definefont pop
/Helvetica findfont
dup length dict begin
  {1 index /FID ne {def} {pop pop} ifelse} forall
  /Encoding WinAnsiEncoding def
  currentdict
end
/Helvetica exch definefont pop
/Courier-BoldOblique findfont
dup length dict begin
  {1 index /FID ne {def} {pop pop} ifelse} forall
  /Encoding WinAnsiEncoding def
  currentdict
end
/Courier-BoldOblique exch definefont pop
/Courier-Oblique findfont
dup length dict begin
  {1 index /FID ne {def} {pop pop} ifelse} forall
  /Encoding WinAnsiEncoding def
  currentdict
end
/Courier-Oblique exch definefont pop
/Times-Roman findfont
dup length dict begin
  {1 index /FID ne {def} {pop pop} ifelse} forall
  /Encoding WinAnsiEncoding def
  currentdict
end
/Times-Roman exch definefont pop
/Helvetica-BoldOblique findfont
dup length dict begin
  {1 index /FID ne {def} {pop pop} ifelse} forall
  /Encoding WinAnsiEncoding def
  currentdict
end
/Helvetica-BoldOblique exch definefont pop
/Helvetica-Bold findfont
dup length dict begin
  {1 index /FID ne {def} {pop pop} ifelse} forall
  /Encoding WinAnsiEncoding def
  currentdict
end
/Helvetica-Bold exch definefont pop
/Helvetica-Oblique findfont
dup length dict begin
  {1 index /FID ne {def} {pop pop} ifelse} forall
  /Encoding WinAnsiEncoding def
  currentdict
end
/Helvetica-Oblique exch definefont pop
/Times-BoldItalic findfont
dup length dict begin
  {1 index /FID ne {def} {pop pop} ifelse} forall
  /Encoding WinAnsiEncoding def
  currentdict
end
/Times-BoldItalic exch definefont pop
/Courier findfont
dup length dict begin
  {1 index /FID ne {def} {pop pop} ifelse} forall
  /Encoding WinAnsiEncoding def
  currentdict
end
/Courier exch definefont pop
/Times-Italic findfont
dup length dict begin
  {1 index /FID ne {def} {pop pop} ifelse} forall
  /Encoding WinAnsiEncoding def
  currentdict
end
/Times-Italic exch definefont pop
/Times-Bold findfont
dup length dict begin
  {1 index /FID ne {def} {pop pop} ifelse} forall
  /Encoding WinAnsiEncoding def
  currentdict
end
/Times-Bold exch definefont pop
%FOPEndFontReencode
%%EndProlog
%%Page: 1 1
%%PageBoundingBox: 0 0 4535 2551
%%BeginPageSetup
[1 0 0 -1 0 2551] CT
%%EndPageSetup
GS
[2.95468 0 0 2.95276 0 -0.18115] CT
0.997 GC
N
0 0 1535 864 re
f
GR
GS
[2.95468 0 0 2.95276 0 -0.18115] CT
0.997 GC
N
0 0 1535 864 re
f
GR
GS
[2.95468 0 0 2.95276 0 -0.18115] CT
0.997 GC
N
169 751 M
1178 751 L
1178 65 L
169 65 L
cp
f
GR
GS
[2.95468 0 0 2.95276 1989.97668 2395.42667] CT
0 GC
/Helvetica-Bold 44 F
GS
[1 0 0 1 0 0] CT
-120.989 44.236 moveto 
1 -1 scale
(Angle \(deg\)) t 
GR
GR
GS
[2.95468 0 0 2.95276 0 -0.18115] CT
0 GC
2 setlinecap
10.0 ML
N
169 751 M
1178 751 L
S
GR
GS
[2.95468 0 0 2.95276 0 -0.18115] CT
0 GC
2 setlinecap
10.0 ML
N
169 751 M
169 740.91 L
S
GR
GS
[2.95468 0 0 2.95276 0 -0.18115] CT
0 GC
2 setlinecap
10.0 ML
N
421.25 751 M
421.25 740.91 L
S
GR
GS
[2.95468 0 0 2.95276 0 -0.18115] CT
0 GC
2 setlinecap
10.0 ML
N
673.5 751 M
673.5 740.91 L
S
GR
GS
[2.95468 0 0 2.95276 0 -0.18115] CT
0 GC
2 setlinecap
10.0 ML
N
925.75 751 M
925.75 740.91 L
S
GR
GS
[2.95468 0 0 2.95276 0 -0.18115] CT
0 GC
2 setlinecap
10.0 ML
N
1178 751 M
1178 740.91 L
S
GR
GS
[2.95468 0 0 2.95276 499.34084 2248.8347] CT
0 GC
/Helvetica-Bold 40 F
GS
[1 0 0 1 0 0] CT
-11.123 40.215 moveto 
1 -1 scale
(0) t 
GR
GR
GS
[2.95468 0 0 2.95276 1244.65876 2248.8347] CT
0 GC
/Helvetica-Bold 40 F
GS
[1 0 0 1 0 0] CT
-27.803 40.215 moveto 
1 -1 scale
(0.5) t 
GR
GR
GS
[2.95468 0 0 2.95276 1989.97668 2248.8347] CT
0 GC
/Helvetica-Bold 40 F
GS
[1 0 0 1 0 0] CT
-11.123 40.215 moveto 
1 -1 scale
(1) t 
GR
GR
GS
[2.95468 0 0 2.95276 2735.29459 2248.8347] CT
0 GC
/Helvetica-Bold 40 F
GS
[1 0 0 1 0 0] CT
-27.803 40.215 moveto 
1 -1 scale
(1.5) t 
GR
GR
GS
[2.95468 0 0 2.95276 3480.61251 2248.8347] CT
0 GC
/Helvetica-Bold 40 F
GS
[1 0 0 1 0 0] CT
-11.123 40.215 moveto 
1 -1 scale
(2) t 
GR
GR
GS
[0 -2.95276 2.95468 0 291.70921 1204.54328] CT
0 GC
/Helvetica-Bold 44 F
GS
[1 0 0 1 0 0] CT
-145.471 -9.107 moveto 
1 -1 scale
(Reflectivity \(-\)) t 
GR
GR
GS
[2.95468 0 0 2.95276 0 -0.18115] CT
0 GC
2 setlinecap
10.0 ML
N
169 751 M
169 65 L
S
GR
GS
[2.95468 0 0 2.95276 0 -0.18115] CT
0 GC
2 setlinecap
10.0 ML
N
169 751 M
179.09 751 L
S
GR
GS
[2.95468 0 0 2.95276 0 -0.18115] CT
0 GC
2 setlinecap
10.0 ML
N
169 613.8 M
179.09 613.8 L
S
GR
GS
[2.95468 0 0 2.95276 0 -0.18115] CT
0 GC
2 setlinecap
10.0 ML
N
169 476.6 M
179.09 476.6 L
S
GR
GS
[2.95468 0 0 2.95276 0 -0.18115] CT
0 GC
2 setlinecap
10.0 ML
N
169 339.4 M
179.09 339.4 L
S
GR
GS
[2.95468 0 0 2.95276 0 -0.18115] CT
0 GC
2 setlinecap
10.0 ML
N
169 202.2 M
179.09 202.2 L
S
GR
GS
[2.95468 0 0 2.95276 0 -0.18115] CT
0 GC
2 setlinecap
10.0 ML
N
169 65 M
179.09 65 L
S
GR
GS
[2.95468 0 0 2.95276 467.82425 2217.33858] CT
0 GC
/Helvetica-Bold 40 F
GS
[1 0 0 1 0 0] CT
-22.246 16.059 moveto 
1 -1 scale
(0) t 
GR
GR
GS
[2.95468 0 0 2.95276 467.82425 1812.22042] CT
0 GC
/Helvetica-Bold 40 F
GS
[1 0 0 1 0 0] CT
-55.605 16.059 moveto 
1 -1 scale
(0.2) t 
GR
GR
GS
[2.95468 0 0 2.95276 467.82425 1407.10236] CT
0 GC
/Helvetica-Bold 40 F
GS
[1 0 0 1 0 0] CT
-55.605 16.059 moveto 
1 -1 scale
(0.4) t 
GR
GR
GS
[2.95468 0 0 2.95276 467.82425 1001.9842] CT
0 GC
/Helvetica-Bold 40 F
GS
[1 0 0 1 0 0] CT
-55.605 16.059 moveto 
1 -1 scale
(0.6) t 
GR
GR
GS
[2.95468 0 0 2.95276 467.82425 596.86609] CT
0 GC
/Helvetica-Bold 40 F
GS
[1 0 0 1 0 0] CT
-55.605 16.059 moveto 
1 -1 scale
(0.8) t 
GR
GR
GS
[2.95468 0 0 2.95276 467.82425 191.74799] CT
0 GC
/Helvetica-Bold 40 F
GS
[1 0 0 1 0 0] CT
-22.246 16.059 moveto 
1 -1 scale
(1) t 
GR
GR
GS
[2.95468 0 0 2.95276 0 -0.18115] CT
0 GC
2 setlinecap
10.0 ML
2.667 LW
N
169 65 M
184.185 65.646 L
199.32 66.291 L
214.506 66.936 L
229.661 67.58 L
244.827 68.224 L
259.992 68.866 L
275.157 69.508 L
290.323 70.15 L
305.488 70.791 L
320.653 71.432 L
335.818 72.072 L
350.984 72.711 L
366.15 73.35 L
381.315 73.989 L
396.48 74.627 L
411.645 75.263 L
426.811 75.901 L
441.976 76.536 L
457.141 77.172 L
472.306 77.807 L
487.472 78.441 L
502.637 79.075 L
517.803 79.709 L
532.968 80.342 L
548.133 80.974 L
563.299 81.606 L
578.464 82.238 L
593.629 82.868 L
608.795 83.499 L
623.96 84.129 L
639.125 84.758 L
654.291 85.387 L
669.456 86.016 L
684.619 86.643 L
699.784 87.271 L
714.95 87.898 L
730.115 88.524 L
745.28 89.151 L
760.446 89.776 L
775.611 90.401 L
790.776 91.026 L
805.946 91.65 L
821.112 92.274 L
836.277 92.898 L
851.442 93.52 L
866.607 94.143 L
881.773 94.765 L
896.938 95.386 L
912.103 96.008 L
927.269 96.629 L
942.434 97.249 L
957.599 97.868 L
972.764 98.488 L
987.93 99.107 L
1003.095 99.726 L
1018.26 100.344 L
1033.425 100.962 L
1048.591 101.58 L
1063.756 102.197 L
1078.921 102.814 L
1094.087 103.43 L
1109.252 104.046 L
1124.417 104.662 L
1139.582 105.276 L
1154.748 105.892 L
1169.913 106.506 L
1178.101 106.838 L
S
GR
GS
[2.95468 0 0 2.95276 0 -0.18115] CT
0 GC
[8 2 4 2] 0 setdash
2 LJ
2.667 LW
N
169 65 M
184.185 70.091 L
199.32 75.151 L
214.506 80.183 L
229.661 85.19 L
244.827 90.181 L
259.992 95.154 L
275.157 100.121 L
290.323 105.087 L
305.488 110.048 L
320.653 115.018 L
335.818 119.99 L
350.984 124.982 L
366.15 129.998 L
381.315 135.045 L
396.48 140.114 L
411.645 145.209 L
426.811 150.351 L
441.976 155.547 L
457.141 160.804 L
472.306 166.11 L
487.472 171.47 L
502.637 176.934 L
517.803 182.444 L
532.968 188.077 L
548.133 193.795 L
563.299 199.633 L
578.464 205.575 L
593.629 211.66 L
608.795 217.901 L
623.96 224.284 L
639.125 230.852 L
654.291 237.592 L
669.456 244.554 L
684.619 251.764 L
699.784 259.205 L
714.95 266.944 L
730.115 275.013 L
745.28 283.403 L
760.446 292.197 L
775.611 301.394 L
790.776 311.092 L
805.946 321.354 L
821.112 332.194 L
836.277 343.748 L
851.442 356.112 L
866.607 369.324 L
881.773 383.497 L
896.938 398.914 L
912.103 415.562 L
927.269 433.562 L
942.434 453.098 L
957.599 474.191 L
972.764 496.709 L
987.93 520.169 L
1003.095 543.914 L
1018.26 567.312 L
1033.425 589.214 L
1048.591 609.29 L
1063.756 626.977 L
1078.921 642.22 L
1094.087 655.159 L
1109.252 666.378 L
1124.417 676.325 L
1139.582 684.938 L
1154.748 692.073 L
1169.913 697.698 L
1178.101 700.253 L
S
GR
GS
[2.95468 0 0 2.95276 0 -0.18115] CT
0 GC
[8 8] 0 setdash
2 LJ
2.667 LW
N
169 65 M
174.045 67.621 L
179.09 70.236 L
184.185 72.842 L
189.23 75.451 L
194.275 78.051 L
199.32 80.663 L
204.365 83.3 L
209.461 85.892 L
214.506 88.55 L
219.551 91.203 L
224.606 93.846 L
229.661 96.532 L
234.717 99.209 L
239.772 101.938 L
244.827 104.732 L
249.882 107.523 L
254.937 110.307 L
259.992 113.167 L
265.047 116.117 L
270.102 119.068 L
275.157 122.016 L
280.212 125.07 L
285.268 128.242 L
290.323 131.425 L
295.378 134.615 L
300.433 137.946 L
305.488 141.436 L
310.543 144.951 L
315.598 148.652 L
320.653 152.39 L
325.708 156.343 L
330.763 160.351 L
335.818 164.412 L
340.874 168.949 L
345.929 173.366 L
350.984 178.1 L
356.039 183.196 L
361.094 188.443 L
366.15 194.135 L
371.205 200.042 L
376.26 206.507 L
381.315 213.628 L
386.37 220.782 L
391.425 229.144 L
396.48 238.11 L
401.535 247.787 L
406.59 258.844 L
411.645 271.04 L
416.7 285.312 L
421.756 301.52 L
426.811 321.093 L
431.866 345.212 L
436.921 374.177 L
441.976 408.937 L
447.031 450.94 L
452.086 497.201 L
457.141 540.373 L
462.196 576.073 L
467.251 603.738 L
472.306 627.647 L
477.362 648.067 L
482.417 660.776 L
487.472 669.54 L
492.527 680.995 L
497.582 692.827 L
502.637 699.481 L
507.693 701.608 L
512.748 704.901 L
517.803 711.486 L
522.858 718.209 L
527.913 721.639 L
532.968 722.257 L
538.023 722.805 L
543.078 725.206 L
548.133 728.979 L
553.188 732.478 L
558.243 734.33 L
563.299 734.536 L
568.354 734.124 L
573.409 734.467 L
578.464 736.251 L
583.519 739.064 L
588.574 741.327 L
593.629 741.876 L
598.684 740.847 L
603.739 739.681 L
608.795 740.024 L
613.85 742.082 L
618.905 744.613 L
623.96 745.958 L
629.015 745.395 L
634.07 743.866 L
639.125 742.905 L
644.18 743.66 L
649.236 745.567 L
654.291 747.44 L
659.346 748.036 L
664.401 747.227 L
669.456 745.985 L
674.509 745.45 L
679.564 746.102 L
684.619 747.481 L
689.674 748.681 L
694.729 749.004 L
699.784 748.524 L
704.84 747.796 L
709.895 747.474 L
714.95 747.762 L
720.005 748.469 L
725.06 749.134 L
730.115 749.463 L
735.17 749.415 L
740.225 749.182 L
745.28 748.969 L
750.335 748.921 L
755.39 749.052 L
760.446 749.312 L
765.501 749.621 L
770.556 749.889 L
775.611 750.019 L
780.666 749.957 L
785.721 749.751 L
790.776 749.532 L
795.831 749.477 L
800.886 749.662 L
805.946 750.026 L
811.001 750.375 L
816.057 750.499 L
821.112 750.337 L
826.167 750.012 L
831.222 749.765 L
836.277 749.779 L
841.332 750.053 L
846.387 750.442 L
851.442 750.695 L
856.497 750.681 L
861.552 750.444 L
866.607 750.163 L
871.663 750.046 L
876.718 750.156 L
881.773 750.428 L
886.828 750.693 L
891.883 750.803 L
896.938 750.725 L
901.993 750.545 L
907.048 750.4 L
912.103 750.381 L
917.158 750.488 L
922.213 750.653 L
927.269 750.781 L
932.324 750.818 L
937.379 750.774 L
942.434 750.7 L
947.489 750.647 L
952.544 750.641 L
957.599 750.678 L
962.654 750.734 L
967.709 750.789 L
972.764 750.829 L
977.819 750.847 L
982.875 750.842 L
987.93 750.814 L
992.985 750.776 L
998.04 750.749 L
1003.095 750.752 L
1008.15 750.794 L
1013.205 750.859 L
1018.26 750.913 L
1023.315 750.927 L
1028.37 750.892 L
1033.425 750.829 L
1038.48 750.78 L
1043.536 750.776 L
1048.591 750.824 L
1053.646 750.896 L
1058.701 750.953 L
1063.756 750.961 L
1068.811 750.921 L
1073.866 750.861 L
1078.921 750.822 L
1083.976 750.826 L
1089.031 750.871 L
1094.087 750.931 L
1099.142 750.97 L
1104.197 750.971 L
1109.252 750.94 L
1114.307 750.901 L
1119.362 750.879 L
1124.417 750.886 L
1129.472 750.916 L
1134.527 750.951 L
1139.582 750.972 L
1144.637 750.973 L
1149.693 750.958 L
1154.748 750.941 L
1159.803 750.931 L
1164.858 750.933 L
1169.913 750.944 L
1174.968 750.957 L
1178.101 750.963 L
S
GR
GS
[2.95468 0 0 2.95276 0 -0.18115] CT
0 GC
[2 2] 0 setdash
2 LJ
2.667 LW
N
169 65 M
174.045 69.263 L
179.09 73.602 L
184.185 77.915 L
189.23 82.521 L
194.275 87.117 L
199.32 92.279 L
204.365 98.351 L
209.461 103.701 L
214.506 111.433 L
219.551 119.985 L
224.606 129.57 L
229.661 143.291 L
234.717 161.397 L
239.772 195.732 L
244.827 309.73 L
249.882 579.891 L
254.937 662.953 L
259.992 707.439 L
265.047 718.621 L
270.102 716.494 L
275.157 737.349 L
280.212 731.037 L
285.268 740.23 L
290.323 743.248 L
295.378 740.298 L
300.433 748.187 L
305.488 742.699 L
310.543 749.676 L
315.598 746.287 L
320.653 749.717 L
325.708 748.441 L
330.763 749.82 L
335.818 749.381 L
340.874 750.012 L
345.929 749.806 L
350.984 750.04 L
356.039 750.156 L
361.094 750.259 L
366.15 750.505 L
371.205 750.451 L
376.26 750.756 L
381.315 750.609 L
386.37 750.861 L
391.425 750.686 L
396.48 750.882 L
401.535 750.77 L
406.59 750.857 L
411.645 750.861 L
416.7 750.852 L
421.756 750.935 L
426.811 750.877 L
431.866 750.97 L
436.921 750.921 L
441.976 750.973 L
447.031 750.956 L
452.086 750.961 L
457.141 750.98 L
462.196 750.95 L
467.251 750.994 L
472.306 750.956 L
477.362 750.998 L
482.417 750.97 L
487.472 750.996 L
492.527 750.985 L
497.582 750.992 L
502.637 750.995 L
507.693 750.99 L
512.748 750.998 L
517.803 750.991 L
522.858 750.998 L
527.913 750.994 L
532.968 750.997 L
538.023 750.997 L
543.078 750.997 L
548.133 750.999 L
553.188 750.998 L
558.243 750.999 L
563.299 750.999 L
568.354 750.999 L
573.409 751 L
578.464 750.999 L
583.519 751 L
588.574 750.999 L
593.629 751 L
598.684 750.999 L
603.739 751 L
608.795 751 L
613.85 751 L
618.905 751 L
623.96 751 L
629.015 751 L
634.07 751 L
639.125 751 L
644.18 751 L
649.236 751 L
654.291 751 L
659.346 751 L
664.401 751 L
669.456 751 L
674.509 751 L
679.564 751 L
684.619 751 L
689.674 751 L
694.729 751 L
699.784 751 L
704.84 751 L
709.895 751 L
714.95 751 L
720.005 751 L
725.06 751 L
730.115 751 L
735.17 751 L
740.225 751 L
745.28 751 L
750.335 751 L
755.39 751 L
760.446 751 L
765.501 751 L
770.556 751 L
775.611 751 L
780.666 751 L
785.721 751 L
790.776 751 L
795.831 751 L
800.886 751 L
805.946 751 L
811.001 751 L
816.057 751 L
821.112 751 L
826.167 751 L
831.222 751 L
836.277 751 L
841.332 751 L
846.387 751 L
851.442 751 L
856.497 751 L
861.552 751 L
866.607 751 L
871.663 751 L
876.718 751 L
881.773 751 L
886.828 751 L
891.883 751 L
896.938 751 L
901.993 751 L
907.048 751 L
912.103 751 L
917.158 751 L
922.213 751 L
927.269 751 L
932.324 751 L
937.379 751 L
942.434 751 L
947.489 751 L
952.544 751 L
957.599 751 L
962.654 751 L
967.709 751 L
972.764 751 L
977.819 751 L
982.875 751 L
987.93 751 L
992.985 751 L
998.04 751 L
1003.095 751 L
1008.15 751 L
1013.205 751 L
1018.26 751 L
1023.315 751 L
1028.37 751 L
1033.425 751 L
1038.48 751 L
1043.536 751 L
1048.591 751 L
1053.646 751 L
1058.701 751 L
1063.756 751 L
1068.811 751 L
1073.866 751 L
1078.921 751 L
1083.976 751 L
1089.031 751 L
1094.087 751 L
1099.142 751 L
1104.197 751 L
1109.252 751 L
1114.307 751 L
1119.362 751 L
1124.417 751 L
1129.472 751 L
1134.527 751 L
1139.582 751 L
1144.637 751 L
1149.693 751 L
1154.748 751 L
1159.803 751 L
1164.858 751 L
1169.913 751 L
1174.968 751 L
1178.101 751 L
S
GR
GS
[2.95468 0 0 2.95276 3708.74969 1007.83141] CT
0 GC
/Helvetica-Bold 36 F
GS
[1 0 0 1 0 0] CT
0 14.553 moveto 
1 -1 scale
(110 eV) t 
GR
GR
GS
[2.95468 0 0 2.95276 0 -0.18115] CT
0 GC
2 setlinecap
10.0 ML
2.667 LW
N
1211.033 341.38 M
1251.196 341.38 L
S
GR
GS
[2.95468 0 0 2.95276 3708.74969 1137.98841] CT
0 GC
/Helvetica-Bold 36 F
GS
[1 0 0 1 0 0] CT
0 14.553 moveto 
1 -1 scale
(2123 eV) t 
GR
GR
GS
[2.95468 0 0 2.95276 0 -0.18115] CT
0 GC
[8 2 4 2] 0 setdash
2 LJ
2.667 LW
N
1211.033 385.46 M
1251.196 385.46 L
S
GR
GS
[2.95468 0 0 2.95276 3708.74969 1268.1454] CT
0 GC
/Helvetica-Bold 36 F
GS
[1 0 0 1 0 0] CT
0 14.553 moveto 
1 -1 scale
(8048 eV) t 
GR
GR
GS
[2.95468 0 0 2.95276 0 -0.18115] CT
0 GC
[8 8] 0 setdash
2 LJ
2.667 LW
N
1211.033 429.54 M
1251.196 429.54 L
S
GR
GS
[2.95468 0 0 2.95276 3708.74969 1398.30239] CT
0 GC
/Helvetica-Bold 36 F
GS
[1 0 0 1 0 0] CT
0 14.553 moveto 
1 -1 scale
(30973 eV) t 
GR
GR
GS
[2.95468 0 0 2.95276 0 -0.18115] CT
0 GC
[2 2] 0 setdash
2 LJ
2.667 LW
N
1211.033 473.62 M
1251.196 473.62 L
S
GR
%%Trailer
%%BoundingBox: 134 0 4164 2430
%%Pages: 1
%%EOF
