%!PS-Adobe-3.0 EPSF-3.0
%%Creator: (MATLAB, The Mathworks, Inc. Version 9.6.0.1135713 \(R2019a\) Update 3. Operating System: Windows 10)
%%Title: ./REX_crossH_6.6_mm.eps
%%CreationDate: 2019-07-16T23:05:18
%%Pages: (atend)
%%BoundingBox:   125    16  1579   810
%%LanguageLevel: 3
%%EndComments
%%BeginProlog
%%BeginResource: procset (Apache XML Graphics Std ProcSet) 1.2 0
%%Version: 1.2 0
%%Copyright: (Copyright 2001-2003,2010 The Apache Software Foundation. License terms: http://www.apache.org/licenses/LICENSE-2.0)
/bd{bind def}bind def
/ld{load def}bd
/GR/grestore ld
/GS/gsave ld
/RM/rmoveto ld
/C/curveto ld
/t/show ld
/L/lineto ld
/ML/setmiterlimit ld
/CT/concat ld
/f/fill ld
/N/newpath ld
/S/stroke ld
/CC/setcmykcolor ld
/A/ashow ld
/cp/closepath ld
/RC/setrgbcolor ld
/LJ/setlinejoin ld
/GC/setgray ld
/LW/setlinewidth ld
/M/moveto ld
/re {4 2 roll M
1 index 0 rlineto
0 exch rlineto
neg 0 rlineto
cp } bd
/_ctm matrix def
/_tm matrix def
/BT { _ctm currentmatrix pop matrix _tm copy pop 0 0 moveto } bd
/ET { _ctm setmatrix } bd
/iTm { _ctm setmatrix _tm concat } bd
/Tm { _tm astore pop iTm 0 0 moveto } bd
/ux 0.0 def
/uy 0.0 def
/F {
  /Tp exch def
  /Tf exch def
  Tf findfont Tp scalefont setfont
  /cf Tf def  /cs Tp def
} bd
/ULS {currentpoint /uy exch def /ux exch def} bd
/ULE {
  /Tcx currentpoint pop def
  gsave
  newpath
  cf findfont cs scalefont dup
  /FontMatrix get 0 get /Ts exch def /FontInfo get dup
  /UnderlinePosition get Ts mul /To exch def
  /UnderlineThickness get Ts mul /Tt exch def
  ux uy To add moveto  Tcx uy To add lineto
  Tt setlinewidth stroke
  grestore
} bd
/OLE {
  /Tcx currentpoint pop def
  gsave
  newpath
  cf findfont cs scalefont dup
  /FontMatrix get 0 get /Ts exch def /FontInfo get dup
  /UnderlinePosition get Ts mul /To exch def
  /UnderlineThickness get Ts mul /Tt exch def
  ux uy To add cs add moveto Tcx uy To add cs add lineto
  Tt setlinewidth stroke
  grestore
} bd
/SOE {
  /Tcx currentpoint pop def
  gsave
  newpath
  cf findfont cs scalefont dup
  /FontMatrix get 0 get /Ts exch def /FontInfo get dup
  /UnderlinePosition get Ts mul /To exch def
  /UnderlineThickness get Ts mul /Tt exch def
  ux uy To add cs 10 mul 26 idiv add moveto Tcx uy To add cs 10 mul 26 idiv add lineto
  Tt setlinewidth stroke
  grestore
} bd
/QT {
/Y22 exch store
/X22 exch store
/Y21 exch store
/X21 exch store
currentpoint
/Y21 load 2 mul add 3 div exch
/X21 load 2 mul add 3 div exch
/X21 load 2 mul /X22 load add 3 div
/Y21 load 2 mul /Y22 load add 3 div
/X22 load /Y22 load curveto
} bd
/SSPD {
dup length /d exch dict def
{
/v exch def
/k exch def
currentpagedevice k known {
/cpdv currentpagedevice k get def
v cpdv ne {
/upd false def
/nullv v type /nulltype eq def
/nullcpdv cpdv type /nulltype eq def
nullv nullcpdv or
{
/upd true def
} {
/sametype v type cpdv type eq def
sametype {
v type /arraytype eq {
/vlen v length def
/cpdvlen cpdv length def
vlen cpdvlen eq {
0 1 vlen 1 sub {
/i exch def
/obj v i get def
/cpdobj cpdv i get def
obj cpdobj ne {
/upd true def
exit
} if
} for
} {
/upd true def
} ifelse
} {
v type /dicttype eq {
v {
/dv exch def
/dk exch def
/cpddv cpdv dk get def
dv cpddv ne {
/upd true def
exit
} if
} forall
} {
/upd true def
} ifelse
} ifelse
} if
} ifelse
upd true eq {
d k v put
} if
} if
} if
} forall
d length 0 gt {
d setpagedevice
} if
} bd
/RE { % /NewFontName [NewEncodingArray] /FontName RE -
  findfont dup length dict begin
  {
    1 index /FID ne
    {def} {pop pop} ifelse
  } forall
  /Encoding exch def
  /FontName 1 index def
  currentdict definefont pop
  end
} bind def
%%EndResource
%%BeginResource: procset (Apache XML Graphics EPS ProcSet) 1.0 0
%%Version: 1.0 0
%%Copyright: (Copyright 2002-2003 The Apache Software Foundation. License terms: http://www.apache.org/licenses/LICENSE-2.0)
/BeginEPSF { %def
/b4_Inc_state save def         % Save state for cleanup
/dict_count countdictstack def % Count objects on dict stack
/op_count count 1 sub def      % Count objects on operand stack
userdict begin                 % Push userdict on dict stack
/showpage { } def              % Redefine showpage, { } = null proc
0 setgray 0 setlinecap         % Prepare graphics state
1 setlinewidth 0 setlinejoin
10 setmiterlimit [ ] 0 setdash newpath
/languagelevel where           % If level not equal to 1 then
{pop languagelevel             % set strokeadjust and
1 ne                           % overprint to their defaults.
{false setstrokeadjust false setoverprint
} if
} if
} bd
/EndEPSF { %def
count op_count sub {pop} repeat            % Clean up stacks
countdictstack dict_count sub {end} repeat
b4_Inc_state restore
} bd
%%EndResource
%FOPBeginFontDict
%%IncludeResource: font Courier-Oblique
%%IncludeResource: font Courier-BoldOblique
%%IncludeResource: font Courier-Bold
%%IncludeResource: font ZapfDingbats
%%IncludeResource: font Symbol
%%IncludeResource: font Helvetica
%%IncludeResource: font Helvetica-Oblique
%%IncludeResource: font Helvetica-Bold
%%IncludeResource: font Helvetica-BoldOblique
%%IncludeResource: font Times-Roman
%%IncludeResource: font Times-Italic
%%IncludeResource: font Times-Bold
%%IncludeResource: font Times-BoldItalic
%%IncludeResource: font Courier
%FOPEndFontDict
%%BeginResource: encoding WinAnsiEncoding
/WinAnsiEncoding [
/.notdef /.notdef /.notdef /.notdef /.notdef
/.notdef /.notdef /.notdef /.notdef /.notdef
/.notdef /.notdef /.notdef /.notdef /.notdef
/.notdef /.notdef /.notdef /.notdef /.notdef
/.notdef /.notdef /.notdef /.notdef /.notdef
/.notdef /.notdef /.notdef /.notdef /.notdef
/.notdef /.notdef /space /exclam /quotedbl
/numbersign /dollar /percent /ampersand /quotesingle
/parenleft /parenright /asterisk /plus /comma
/hyphen /period /slash /zero /one
/two /three /four /five /six
/seven /eight /nine /colon /semicolon
/less /equal /greater /question /at
/A /B /C /D /E
/F /G /H /I /J
/K /L /M /N /O
/P /Q /R /S /T
/U /V /W /X /Y
/Z /bracketleft /backslash /bracketright /asciicircum
/underscore /quoteleft /a /b /c
/d /e /f /g /h
/i /j /k /l /m
/n /o /p /q /r
/s /t /u /v /w
/x /y /z /braceleft /bar
/braceright /asciitilde /bullet /Euro /bullet
/quotesinglbase /florin /quotedblbase /ellipsis /dagger
/daggerdbl /circumflex /perthousand /Scaron /guilsinglleft
/OE /bullet /Zcaron /bullet /bullet
/quoteleft /quoteright /quotedblleft /quotedblright /bullet
/endash /emdash /asciitilde /trademark /scaron
/guilsinglright /oe /bullet /zcaron /Ydieresis
/space /exclamdown /cent /sterling /currency
/yen /brokenbar /section /dieresis /copyright
/ordfeminine /guillemotleft /logicalnot /sfthyphen /registered
/macron /degree /plusminus /twosuperior /threesuperior
/acute /mu /paragraph /middot /cedilla
/onesuperior /ordmasculine /guillemotright /onequarter /onehalf
/threequarters /questiondown /Agrave /Aacute /Acircumflex
/Atilde /Adieresis /Aring /AE /Ccedilla
/Egrave /Eacute /Ecircumflex /Edieresis /Igrave
/Iacute /Icircumflex /Idieresis /Eth /Ntilde
/Ograve /Oacute /Ocircumflex /Otilde /Odieresis
/multiply /Oslash /Ugrave /Uacute /Ucircumflex
/Udieresis /Yacute /Thorn /germandbls /agrave
/aacute /acircumflex /atilde /adieresis /aring
/ae /ccedilla /egrave /eacute /ecircumflex
/edieresis /igrave /iacute /icircumflex /idieresis
/eth /ntilde /ograve /oacute /ocircumflex
/otilde /odieresis /divide /oslash /ugrave
/uacute /ucircumflex /udieresis /yacute /thorn
/ydieresis
] def
%%EndResource
%FOPBeginFontReencode
/Courier-Oblique findfont
dup length dict begin
  {1 index /FID ne {def} {pop pop} ifelse} forall
  /Encoding WinAnsiEncoding def
  currentdict
end
/Courier-Oblique exch definefont pop
/Courier-BoldOblique findfont
dup length dict begin
  {1 index /FID ne {def} {pop pop} ifelse} forall
  /Encoding WinAnsiEncoding def
  currentdict
end
/Courier-BoldOblique exch definefont pop
/Courier-Bold findfont
dup length dict begin
  {1 index /FID ne {def} {pop pop} ifelse} forall
  /Encoding WinAnsiEncoding def
  currentdict
end
/Courier-Bold exch definefont pop
/Helvetica findfont
dup length dict begin
  {1 index /FID ne {def} {pop pop} ifelse} forall
  /Encoding WinAnsiEncoding def
  currentdict
end
/Helvetica exch definefont pop
/Helvetica-Oblique findfont
dup length dict begin
  {1 index /FID ne {def} {pop pop} ifelse} forall
  /Encoding WinAnsiEncoding def
  currentdict
end
/Helvetica-Oblique exch definefont pop
/Helvetica-Bold findfont
dup length dict begin
  {1 index /FID ne {def} {pop pop} ifelse} forall
  /Encoding WinAnsiEncoding def
  currentdict
end
/Helvetica-Bold exch definefont pop
/Helvetica-BoldOblique findfont
dup length dict begin
  {1 index /FID ne {def} {pop pop} ifelse} forall
  /Encoding WinAnsiEncoding def
  currentdict
end
/Helvetica-BoldOblique exch definefont pop
/Times-Roman findfont
dup length dict begin
  {1 index /FID ne {def} {pop pop} ifelse} forall
  /Encoding WinAnsiEncoding def
  currentdict
end
/Times-Roman exch definefont pop
/Times-Italic findfont
dup length dict begin
  {1 index /FID ne {def} {pop pop} ifelse} forall
  /Encoding WinAnsiEncoding def
  currentdict
end
/Times-Italic exch definefont pop
/Times-Bold findfont
dup length dict begin
  {1 index /FID ne {def} {pop pop} ifelse} forall
  /Encoding WinAnsiEncoding def
  currentdict
end
/Times-Bold exch definefont pop
/Times-BoldItalic findfont
dup length dict begin
  {1 index /FID ne {def} {pop pop} ifelse} forall
  /Encoding WinAnsiEncoding def
  currentdict
end
/Times-BoldItalic exch definefont pop
/Courier findfont
dup length dict begin
  {1 index /FID ne {def} {pop pop} ifelse} forall
  /Encoding WinAnsiEncoding def
  currentdict
end
/Courier exch definefont pop
%FOPEndFontReencode
%%EndProlog
%%Page: 1 1
%%PageBoundingBox: 0 0 1728 864
%%BeginPageSetup
[1 0 0 -1 0 864] CT
%%EndPageSetup
GS
[0.9 0 0 0.9 0 0] CT
1 GC
N
0 0 1920 960 re
f
GR
GS
[0.9 0 0 0.9 0 0] CT
1 GC
N
0 0 1920 960 re
f
GR
GS
[0.9 0 0 0.9 0 0] CT
1 GC
N
250 854 M
1738 854 L
1738 72 L
250 72 L
cp
f
GR
GS
[0.9 0 0 0.9 0 0] CT
0.873 GC
1 LJ
0.556 LW
N
250 854 M
250 72 L
S
GR
GS
[0.9 0 0 0.9 0 0] CT
0.873 GC
1 LJ
0.556 LW
N
462.571 854 M
462.571 72 L
S
GR
GS
[0.9 0 0 0.9 0 0] CT
0.873 GC
1 LJ
0.556 LW
N
675.143 854 M
675.143 72 L
S
GR
GS
[0.9 0 0 0.9 0 0] CT
0.873 GC
1 LJ
0.556 LW
N
887.714 854 M
887.714 72 L
S
GR
GS
[0.9 0 0 0.9 0 0] CT
0.873 GC
1 LJ
0.556 LW
N
1100.286 854 M
1100.286 72 L
S
GR
GS
[0.9 0 0 0.9 0 0] CT
0.873 GC
1 LJ
0.556 LW
N
1312.857 854 M
1312.857 72 L
S
GR
GS
[0.9 0 0 0.9 0 0] CT
0.873 GC
1 LJ
0.556 LW
N
1525.429 854 M
1525.429 72 L
S
GR
GS
[0.9 0 0 0.9 0 0] CT
0.873 GC
1 LJ
0.556 LW
N
1738 854 M
1738 72 L
S
GR
GS
[0.9 0 0 0.9 0 0] CT
0.873 GC
1 LJ
0.556 LW
N
1738 854 M
250 854 L
S
GR
GS
[0.9 0 0 0.9 0 0] CT
0.873 GC
1 LJ
0.556 LW
N
1738 756.25 M
250 756.25 L
S
GR
GS
[0.9 0 0 0.9 0 0] CT
0.873 GC
1 LJ
0.556 LW
N
1738 658.5 M
250 658.5 L
S
GR
GS
[0.9 0 0 0.9 0 0] CT
0.873 GC
1 LJ
0.556 LW
N
1738 560.75 M
250 560.75 L
S
GR
GS
[0.9 0 0 0.9 0 0] CT
0.873 GC
1 LJ
0.556 LW
N
1738 463 M
250 463 L
S
GR
GS
[0.9 0 0 0.9 0 0] CT
0.873 GC
1 LJ
0.556 LW
N
1738 365.25 M
250 365.25 L
S
GR
GS
[0.9 0 0 0.9 0 0] CT
0.873 GC
1 LJ
0.556 LW
N
1738 267.5 M
250 267.5 L
S
GR
GS
[0.9 0 0 0.9 0 0] CT
0.873 GC
1 LJ
0.556 LW
N
1738 169.75 M
250 169.75 L
S
GR
GS
[0.9 0 0 0.9 0 0] CT
0.873 GC
1 LJ
0.556 LW
N
1738 72 M
250 72 L
S
GR
GS
[0.9 0 0 0.9 0 0] CT
0.149 GC
2 setlinecap
1 LJ
0.556 LW
N
250 854 M
1738 854 L
S
GR
GS
[0.9 0 0 0.9 0 0] CT
0.149 GC
2 setlinecap
1 LJ
0.556 LW
N
250 72 M
1738 72 L
S
GR
GS
[0.9 0 0 0.9 0 0] CT
0.149 GC
2 setlinecap
1 LJ
0.556 LW
N
250 854 M
250 839.12 L
S
GR
GS
[0.9 0 0 0.9 0 0] CT
0.149 GC
2 setlinecap
1 LJ
0.556 LW
N
462.571 854 M
462.571 839.12 L
S
GR
GS
[0.9 0 0 0.9 0 0] CT
0.149 GC
2 setlinecap
1 LJ
0.556 LW
N
675.143 854 M
675.143 839.12 L
S
GR
GS
[0.9 0 0 0.9 0 0] CT
0.149 GC
2 setlinecap
1 LJ
0.556 LW
N
887.714 854 M
887.714 839.12 L
S
GR
GS
[0.9 0 0 0.9 0 0] CT
0.149 GC
2 setlinecap
1 LJ
0.556 LW
N
1100.286 854 M
1100.286 839.12 L
S
GR
GS
[0.9 0 0 0.9 0 0] CT
0.149 GC
2 setlinecap
1 LJ
0.556 LW
N
1312.857 854 M
1312.857 839.12 L
S
GR
GS
[0.9 0 0 0.9 0 0] CT
0.149 GC
2 setlinecap
1 LJ
0.556 LW
N
1525.429 854 M
1525.429 839.12 L
S
GR
GS
[0.9 0 0 0.9 0 0] CT
0.149 GC
2 setlinecap
1 LJ
0.556 LW
N
1738 854 M
1738 839.12 L
S
GR
GS
[0.9 0 0 0.9 0 0] CT
0.149 GC
2 setlinecap
1 LJ
0.556 LW
N
250 72 M
250 86.88 L
S
GR
GS
[0.9 0 0 0.9 0 0] CT
0.149 GC
2 setlinecap
1 LJ
0.556 LW
N
462.571 72 M
462.571 86.88 L
S
GR
GS
[0.9 0 0 0.9 0 0] CT
0.149 GC
2 setlinecap
1 LJ
0.556 LW
N
675.143 72 M
675.143 86.88 L
S
GR
GS
[0.9 0 0 0.9 0 0] CT
0.149 GC
2 setlinecap
1 LJ
0.556 LW
N
887.714 72 M
887.714 86.88 L
S
GR
GS
[0.9 0 0 0.9 0 0] CT
0.149 GC
2 setlinecap
1 LJ
0.556 LW
N
1100.286 72 M
1100.286 86.88 L
S
GR
GS
[0.9 0 0 0.9 0 0] CT
0.149 GC
2 setlinecap
1 LJ
0.556 LW
N
1312.857 72 M
1312.857 86.88 L
S
GR
GS
[0.9 0 0 0.9 0 0] CT
0.149 GC
2 setlinecap
1 LJ
0.556 LW
N
1525.429 72 M
1525.429 86.88 L
S
GR
GS
[0.9 0 0 0.9 0 0] CT
0.149 GC
2 setlinecap
1 LJ
0.556 LW
N
1738 72 M
1738 86.88 L
S
GR
GS
[0.9 0 0 0.9 225 777.6] CT
0.149 GC
/Helvetica 33.333 F
GS
[1 0 0 1 0 0] CT
-9.5 31 moveto 
1 -1 scale
(0) t 
GR
GR
GS
[0.9 0 0 0.9 416.3143 777.6] CT
0.149 GC
/Helvetica 33.333 F
GS
[1 0 0 1 0 0] CT
-9.5 31 moveto 
1 -1 scale
(2) t 
GR
GR
GS
[0.9 0 0 0.9 607.62859 777.6] CT
0.149 GC
/Helvetica 33.333 F
GS
[1 0 0 1 0 0] CT
-9.5 31 moveto 
1 -1 scale
(4) t 
GR
GR
GS
[0.9 0 0 0.9 798.94286 777.6] CT
0.149 GC
/Helvetica 33.333 F
GS
[1 0 0 1 0 0] CT
-9.5 31 moveto 
1 -1 scale
(6) t 
GR
GR
GS
[0.9 0 0 0.9 990.25719 777.6] CT
0.149 GC
/Helvetica 33.333 F
GS
[1 0 0 1 0 0] CT
-9.5 31 moveto 
1 -1 scale
(8) t 
GR
GR
GS
[0.9 0 0 0.9 1181.57146 777.6] CT
0.149 GC
/Helvetica 33.333 F
GS
[1 0 0 1 0 0] CT
-19 31 moveto 
1 -1 scale
(10) t 
GR
GR
GS
[0.9 0 0 0.9 1372.88573 777.6] CT
0.149 GC
/Helvetica 33.333 F
GS
[1 0 0 1 0 0] CT
-19 31 moveto 
1 -1 scale
(12) t 
GR
GR
GS
[0.9 0 0 0.9 1564.2 777.6] CT
0.149 GC
/Helvetica 33.333 F
GS
[1 0 0 1 0 0] CT
-19 31 moveto 
1 -1 scale
(14) t 
GR
GR
GS
[0.9 0 0 0.9 894.60066 813.30002] CT
0.149 GC
/Helvetica 33.333 F
GS
[1 0 0 1 0 0] CT
-52 31 moveto 
1 -1 scale
(x \(mm\)) t 
GR
GR
GS
[0.9 0 0 0.9 0 0] CT
0.149 GC
2 setlinecap
1 LJ
0.556 LW
N
250 854 M
250 72 L
S
GR
GS
[0.9 0 0 0.9 0 0] CT
0.149 GC
2 setlinecap
1 LJ
0.556 LW
N
1738 854 M
1738 72 L
S
GR
GS
[0.9 0 0 0.9 0 0] CT
0.149 GC
2 setlinecap
1 LJ
0.556 LW
N
250 854 M
264.88 854 L
S
GR
GS
[0.9 0 0 0.9 0 0] CT
0.149 GC
2 setlinecap
1 LJ
0.556 LW
N
250 756.25 M
264.88 756.25 L
S
GR
GS
[0.9 0 0 0.9 0 0] CT
0.149 GC
2 setlinecap
1 LJ
0.556 LW
N
250 658.5 M
264.88 658.5 L
S
GR
GS
[0.9 0 0 0.9 0 0] CT
0.149 GC
2 setlinecap
1 LJ
0.556 LW
N
250 560.75 M
264.88 560.75 L
S
GR
GS
[0.9 0 0 0.9 0 0] CT
0.149 GC
2 setlinecap
1 LJ
0.556 LW
N
250 463 M
264.88 463 L
S
GR
GS
[0.9 0 0 0.9 0 0] CT
0.149 GC
2 setlinecap
1 LJ
0.556 LW
N
250 365.25 M
264.88 365.25 L
S
GR
GS
[0.9 0 0 0.9 0 0] CT
0.149 GC
2 setlinecap
1 LJ
0.556 LW
N
250 267.5 M
264.88 267.5 L
S
GR
GS
[0.9 0 0 0.9 0 0] CT
0.149 GC
2 setlinecap
1 LJ
0.556 LW
N
250 169.75 M
264.88 169.75 L
S
GR
GS
[0.9 0 0 0.9 0 0] CT
0.149 GC
2 setlinecap
1 LJ
0.556 LW
N
250 72 M
264.88 72 L
S
GR
GS
[0.9 0 0 0.9 0 0] CT
0.149 GC
2 setlinecap
1 LJ
0.556 LW
N
1738 854 M
1723.12 854 L
S
GR
GS
[0.9 0 0 0.9 0 0] CT
0.149 GC
2 setlinecap
1 LJ
0.556 LW
N
1738 756.25 M
1723.12 756.25 L
S
GR
GS
[0.9 0 0 0.9 0 0] CT
0.149 GC
2 setlinecap
1 LJ
0.556 LW
N
1738 658.5 M
1723.12 658.5 L
S
GR
GS
[0.9 0 0 0.9 0 0] CT
0.149 GC
2 setlinecap
1 LJ
0.556 LW
N
1738 560.75 M
1723.12 560.75 L
S
GR
GS
[0.9 0 0 0.9 0 0] CT
0.149 GC
2 setlinecap
1 LJ
0.556 LW
N
1738 463 M
1723.12 463 L
S
GR
GS
[0.9 0 0 0.9 0 0] CT
0.149 GC
2 setlinecap
1 LJ
0.556 LW
N
1738 365.25 M
1723.12 365.25 L
S
GR
GS
[0.9 0 0 0.9 0 0] CT
0.149 GC
2 setlinecap
1 LJ
0.556 LW
N
1738 267.5 M
1723.12 267.5 L
S
GR
GS
[0.9 0 0 0.9 0 0] CT
0.149 GC
2 setlinecap
1 LJ
0.556 LW
N
1738 169.75 M
1723.12 169.75 L
S
GR
GS
[0.9 0 0 0.9 0 0] CT
0.149 GC
2 setlinecap
1 LJ
0.556 LW
N
1738 72 M
1723.12 72 L
S
GR
GS
[0.9 0 0 0.9 216 768.6] CT
0.149 GC
/Helvetica 33.333 F
GS
[1 0 0 1 0 0] CT
-65 12 moveto 
1 -1 scale
(0.06) t 
GR
GR
GS
[0.9 0 0 0.9 216 680.625] CT
0.149 GC
/Helvetica 33.333 F
GS
[1 0 0 1 0 0] CT
-65 12 moveto 
1 -1 scale
(0.08) t 
GR
GR
GS
[0.9 0 0 0.9 216 592.65] CT
0.149 GC
/Helvetica 33.333 F
GS
[1 0 0 1 0 0] CT
-65 12 moveto 
1 -1 scale
(0.10) t 
GR
GR
GS
[0.9 0 0 0.9 216 504.675] CT
0.149 GC
/Helvetica 33.333 F
GS
[1 0 0 1 0 0] CT
-65 12 moveto 
1 -1 scale
(0.12) t 
GR
GR
GS
[0.9 0 0 0.9 216 416.7] CT
0.149 GC
/Helvetica 33.333 F
GS
[1 0 0 1 0 0] CT
-65 12 moveto 
1 -1 scale
(0.14) t 
GR
GR
GS
[0.9 0 0 0.9 216 328.72503] CT
0.149 GC
/Helvetica 33.333 F
GS
[1 0 0 1 0 0] CT
-65 12 moveto 
1 -1 scale
(0.16) t 
GR
GR
GS
[0.9 0 0 0.9 216 240.74997] CT
0.149 GC
/Helvetica 33.333 F
GS
[1 0 0 1 0 0] CT
-65 12 moveto 
1 -1 scale
(0.18) t 
GR
GR
GS
[0.9 0 0 0.9 216 152.77499] CT
0.149 GC
/Helvetica 33.333 F
GS
[1 0 0 1 0 0] CT
-65 12 moveto 
1 -1 scale
(0.20) t 
GR
GR
GS
[0.9 0 0 0.9 216 64.80001] CT
0.149 GC
/Helvetica 33.333 F
GS
[1 0 0 1 0 0] CT
-65 12 moveto 
1 -1 scale
(0.22) t 
GR
GR
GS
[0 -0.9 0.9 0 153 416.69967] CT
0.149 GC
/Helvetica 33.333 F
GS
[1 0 0 1 0 0] CT
-83.5 -7 moveto 
1 -1 scale
(Intensity \(-\)) t 
GR
GR
GS
[0.9 0 0 0.9 0 0] CT
0 0.447 0.741 RC
1 LJ
0.556 LW
N
251.461 174.257 M
254.384 147.977 L
257.307 156.232 L
260.23 161.078 L
263.153 148.325 L
266.076 199.894 L
268.999 147.977 L
271.921 147.977 L
274.844 170.078 L
277.767 155.008 L
280.69 147.977 L
283.613 152.302 L
286.536 156.623 L
289.459 147.977 L
292.381 147.977 L
295.304 184.054 L
298.227 170.656 L
301.15 147.977 L
304.073 153.535 L
306.996 171.056 L
309.919 188.73 L
312.841 230.492 L
315.764 300.936 L
318.687 361.234 L
321.61 377.858 L
324.533 383.484 L
327.456 383.514 L
330.379 415.792 L
333.301 383.603 L
336.224 383.662 L
339.147 393.088 L
342.07 383.809 L
344.993 381.469 L
347.916 347.861 L
350.839 301.585 L
353.761 242.269 L
356.684 221.198 L
359.607 169.435 L
362.53 156.387 L
365.453 151.898 L
368.376 175.128 L
371.299 149.343 L
374.221 149.391 L
377.144 155.254 L
380.067 149.429 L
382.99 159.396 L
385.913 149.391 L
388.836 151.684 L
391.759 149.277 L
394.681 172.593 L
397.604 149.094 L
400.527 148.982 L
403.45 174.742 L
406.373 155.554 L
409.296 148.626 L
412.219 148.519 L
415.141 201.75 L
418.064 183.467 L
420.987 148.256 L
423.91 173.604 L
426.833 190.021 L
429.756 148.079 L
432.679 201.835 L
435.601 166.579 L
438.524 163.256 L
441.447 147.978 L
444.37 205.496 L
447.293 159.388 L
450.216 153.891 L
453.139 163.438 L
456.061 158.822 L
458.984 147.977 L
461.907 162.375 L
464.83 147.977 L
467.753 147.977 L
470.676 184.433 L
473.599 147.977 L
476.521 154.341 L
479.444 147.977 L
482.367 157.573 L
485.29 173.01 L
488.213 183.212 L
491.136 187.301 L
494.059 164.677 L
496.981 188.498 L
499.904 147.977 L
502.827 154.63 L
505.75 147.977 L
508.673 147.977 L
511.596 162.653 L
514.519 200.584 L
517.441 147.977 L
520.364 147.977 L
523.287 153.732 L
526.21 147.977 L
529.133 154.444 L
532.056 147.977 L
534.979 147.977 L
537.901 153.743 L
540.824 147.977 L
543.747 147.977 L
546.67 179.112 L
549.593 147.977 L
552.516 179.941 L
555.439 150.906 L
558.361 171.081 L
561.284 150.169 L
564.207 147.977 L
567.13 147.977 L
570.053 167.282 L
572.976 147.977 L
575.899 147.977 L
578.821 147.977 L
581.744 155.679 L
584.667 149.337 L
587.59 164.432 L
590.513 147.977 L
593.436 180.869 L
596.359 147.977 L
599.281 147.977 L
602.204 178.634 L
605.127 163.373 L
608.05 157.511 L
610.973 147.977 L
613.896 147.977 L
616.819 157.616 L
619.741 160.001 L
622.664 147.977 L
625.587 147.977 L
628.51 147.977 L
631.433 163.428 L
634.356 188.124 L
637.279 155.814 L
640.201 147.977 L
643.124 147.977 L
646.047 147.977 L
648.97 147.977 L
651.893 147.977 L
654.816 149.698 L
657.739 154.565 L
660.661 157.164 L
663.584 147.977 L
666.507 147.977 L
669.43 147.977 L
672.353 147.977 L
675.276 147.977 L
678.199 147.977 L
681.121 147.977 L
684.044 148.54 L
686.967 147.977 L
689.89 147.977 L
692.813 147.977 L
695.736 147.977 L
698.659 147.977 L
701.581 192.272 L
704.504 147.977 L
707.427 170.533 L
710.35 147.977 L
713.273 149.07 L
716.196 187.156 L
719.119 151.744 L
722.041 158.613 L
724.964 147.977 L
727.887 151.194 L
730.81 176.395 L
733.733 178.658 L
736.656 152.222 L
739.579 151.122 L
742.501 147.977 L
745.424 147.977 L
748.347 152.386 L
751.27 147.977 L
754.193 147.977 L
757.116 147.977 L
760.039 147.977 L
762.961 158.472 L
765.884 147.977 L
768.807 173.573 L
771.73 160.257 L
774.653 154.698 L
777.576 148.962 L
780.499 178.285 L
783.421 147.977 L
786.344 177.708 L
789.267 184.261 L
792.19 162.261 L
795.113 147.977 L
798.036 184.672 L
800.959 147.977 L
803.881 181.891 L
806.804 153.145 L
809.727 147.977 L
812.65 159.375 L
815.573 162.887 L
818.496 172.966 L
821.419 152.134 L
824.341 155.311 L
827.264 147.977 L
830.187 199.48 L
833.11 149.44 L
836.033 147.977 L
838.956 166.953 L
841.879 147.977 L
844.801 163.456 L
847.724 147.977 L
850.647 156.611 L
853.57 147.977 L
856.493 214.822 L
859.416 147.977 L
862.339 169.14 L
865.261 147.977 L
868.184 149.848 L
871.107 147.977 L
874.03 152.134 L
876.953 152.659 L
879.876 150.257 L
882.799 147.977 L
885.721 168.212 L
888.644 147.977 L
891.567 161.529 L
894.49 147.977 L
897.413 186.07 L
900.336 147.977 L
903.259 184.618 L
906.181 176.153 L
909.104 147.977 L
912.027 147.977 L
914.95 151.003 L
917.873 151.58 L
920.796 168.678 L
923.719 263.846 L
926.641 367.137 L
929.564 550.998 L
932.487 707.409 L
935.41 801.546 L
938.333 770.159 L
941.256 770.159 L
944.179 770.159 L
947.101 789.852 L
950.024 770.159 L
952.947 794.371 L
955.87 770.159 L
958.793 755.084 L
961.716 709.323 L
964.639 617.523 L
967.561 367.137 L
970.484 258.063 L
973.407 163.32 L
976.33 202.254 L
979.253 219.308 L
982.176 147.977 L
985.099 147.977 L
988.021 203.948 L
990.944 150.769 L
993.867 165.971 L
996.79 147.977 L
999.713 147.977 L
1002.636 147.977 L
1005.559 149.697 L
1008.481 147.977 L
1011.404 147.977 L
1014.327 147.977 L
1017.25 147.977 L
1020.173 147.977 L
1023.096 176.155 L
1026.019 147.977 L
1028.941 147.977 L
1031.864 151.983 L
1034.787 147.977 L
1037.71 147.977 L
1040.633 147.977 L
1043.556 147.977 L
1046.479 148.299 L
1049.401 149.543 L
1052.324 149.533 L
1055.247 147.977 L
1058.17 156.551 L
1061.093 153.709 L
1064.016 147.977 L
1066.939 165.657 L
1069.861 152.762 L
1072.784 147.977 L
1075.707 147.977 L
1078.63 147.977 L
1081.553 162.265 L
1084.476 147.977 L
1087.399 155.659 L
1090.321 187.091 L
1093.244 187.111 L
1096.167 179.838 L
1099.09 150.291 L
1102.013 164.313 L
1104.936 156.402 L
1107.859 157.214 L
1110.781 147.977 L
1113.704 189.011 L
1116.627 147.977 L
1119.55 195.202 L
1122.473 147.977 L
1125.396 147.977 L
1128.319 205.203 L
1131.241 157.528 L
1134.164 158.378 L
1137.087 151.771 L
1140.01 155.281 L
1142.933 156.792 L
1145.856 191.663 L
1148.779 147.977 L
1151.701 162.032 L
1154.624 147.977 L
1157.547 185.725 L
1160.47 147.977 L
1163.393 152.262 L
1166.316 173.158 L
1169.239 156.06 L
1172.161 147.977 L
1175.084 166.592 L
1178.007 178.219 L
1180.93 150.051 L
1183.853 147.977 L
1186.776 171.499 L
1189.699 177.644 L
1192.621 147.977 L
1195.544 164.512 L
1198.467 147.977 L
1201.39 147.977 L
1204.313 158.97 L
1207.236 173.214 L
1210.159 177.835 L
1213.081 166.203 L
1216.004 155.719 L
1218.927 147.977 L
1221.85 152.963 L
1224.773 169.37 L
1227.696 178.679 L
1230.619 154.152 L
1233.541 161.518 L
1236.464 147.977 L
1239.387 147.977 L
1242.31 147.977 L
1245.233 177.371 L
1248.156 180.799 L
1251.078 165.711 L
1254.001 171.768 L
1256.924 171.381 L
1259.847 147.977 L
1262.77 147.977 L
1265.693 156.54 L
1268.616 149.023 L
1271.539 150.783 L
1274.461 168.572 L
1277.384 180.288 L
1280.307 159.521 L
1283.23 162.49 L
1286.153 164.97 L
1289.076 166.73 L
1291.999 167.625 L
1294.922 167.776 L
1297.844 167.776 L
1300.767 167.776 L
1303.69 179.677 L
1306.613 166.73 L
1309.536 211.198 L
1312.459 162.49 L
1315.381 193.569 L
1318.304 181.346 L
1321.227 153.263 L
1324.15 150.783 L
1327.073 149.023 L
1329.996 184.263 L
1332.919 149.937 L
1335.841 183.001 L
1338.764 147.977 L
1341.687 148.644 L
1344.61 173.372 L
1347.533 147.977 L
1350.456 183.848 L
1353.379 147.977 L
1356.301 170.946 L
1359.224 147.977 L
1362.147 157.407 L
1365.07 166.191 L
1367.993 154.13 L
1370.916 209.459 L
1373.839 170.568 L
1376.761 147.977 L
1379.684 147.977 L
1382.607 152.073 L
1385.53 147.977 L
1388.453 175.028 L
1391.376 147.977 L
1394.299 158.986 L
1397.221 147.977 L
1400.144 176.2 L
1403.067 147.977 L
1405.99 153.032 L
1408.913 176.746 L
1411.836 178.186 L
1414.759 172.061 L
1417.681 147.977 L
1420.604 179.851 L
1423.527 171.33 L
1426.45 147.977 L
1429.373 147.977 L
1432.296 166.833 L
1435.219 184.56 L
1438.141 147.977 L
1441.064 186.969 L
1443.987 147.977 L
1446.91 156.161 L
1449.833 186.879 L
1452.756 177.975 L
1455.679 153.458 L
1458.601 197.272 L
1461.524 147.977 L
1464.447 147.977 L
1467.37 147.977 L
1470.293 147.977 L
1473.216 147.977 L
1476.139 147.977 L
1479.061 156.18 L
1481.984 151.251 L
1484.907 168.21 L
1487.83 147.977 L
1490.753 150.031 L
1493.676 147.977 L
1496.599 148.592 L
1499.521 163.795 L
1502.444 177.515 L
1505.367 147.977 L
1508.29 161.3 L
1511.213 167.177 L
1514.136 147.977 L
1517.059 147.977 L
1519.981 160.805 L
1522.904 147.977 L
1525.827 147.977 L
1528.75 162.316 L
1531.673 147.977 L
1534.596 150.268 L
1537.519 176.553 L
1540.441 157.673 L
1543.364 153.53 L
1546.287 204.143 L
1549.21 147.977 L
1552.133 147.977 L
1555.056 161.733 L
1557.979 147.977 L
1560.901 147.977 L
1563.824 147.977 L
1566.747 158.43 L
1569.67 152.46 L
1572.593 159.476 L
1575.516 147.977 L
1578.439 147.977 L
1581.361 191.015 L
1584.284 147.977 L
1587.207 147.977 L
1590.13 172.787 L
1593.053 147.977 L
1595.976 186.287 L
1598.899 147.977 L
1601.821 147.977 L
1604.744 151.766 L
1607.667 147.977 L
1610.59 156.142 L
1613.513 147.977 L
1616.436 151.224 L
1619.359 147.977 L
1622.281 147.977 L
1625.204 167.152 L
1628.127 190.651 L
1631.05 178.305 L
1633.973 170.129 L
1636.896 153.803 L
1639.819 165.485 L
1642.741 149.259 L
1645.664 147.977 L
1648.587 147.977 L
1651.51 147.977 L
1654.433 165.602 L
1657.356 150.185 L
1660.279 165.152 L
1663.201 195.37 L
1666.124 147.977 L
1669.047 147.977 L
1671.97 171.703 L
1674.893 147.977 L
1677.816 186.716 L
1680.739 155.766 L
1683.661 147.977 L
1686.584 157.597 L
1689.507 155.393 L
1692.43 147.977 L
1695.353 147.977 L
1698.276 147.977 L
1701.199 157.148 L
1704.121 147.977 L
1707.044 172.339 L
1709.967 191.464 L
1712.89 174.786 L
1715.813 150.402 L
1718.736 173.263 L
1721.659 147.977 L
1724.581 147.977 L
1727.504 147.977 L
1730.427 164.674 L
1733.35 165.526 L
1736.273 168.695 L
1738.177 167.342 L
S
GR
GS
[0.9 0 0 0.9 0 0] CT
0.851 0.325 0.098 RC
1 LJ
0.556 LW
N
251.461 160.119 M
254.384 160.067 L
257.307 159.939 L
260.23 159.678 L
263.153 159.427 L
266.076 159.258 L
268.999 159.204 L
271.921 159.429 L
274.844 160.172 L
277.767 161.573 L
280.69 163.653 L
283.613 166.549 L
286.536 170.421 L
289.459 175.583 L
292.381 181.961 L
295.304 189.766 L
298.227 199.145 L
301.15 210.035 L
304.073 222.262 L
306.996 235.511 L
309.919 249.421 L
312.841 263.346 L
315.764 277.131 L
318.687 289.946 L
321.61 301.306 L
324.533 310.807 L
327.456 318.088 L
330.379 322.605 L
333.301 324.221 L
336.224 322.906 L
339.147 318.663 L
342.07 311.686 L
344.993 302.356 L
347.916 291.143 L
350.839 278.456 L
353.761 264.924 L
356.684 250.934 L
359.607 237.02 L
362.53 223.703 L
365.453 211.242 L
368.376 200.025 L
371.299 190.229 L
374.221 182.138 L
377.144 175.438 L
380.067 170.093 L
382.99 166.089 L
385.913 163.255 L
388.836 161.246 L
391.759 160.229 L
394.681 159.813 L
397.604 159.952 L
400.527 160.464 L
403.45 161.435 L
406.373 162.487 L
409.296 163.561 L
412.219 164.645 L
415.141 165.593 L
418.064 166.445 L
420.987 167.182 L
423.91 167.664 L
426.833 167.934 L
429.756 168.103 L
432.679 167.96 L
435.601 167.617 L
438.524 167.057 L
441.447 166.316 L
444.37 165.574 L
447.293 164.813 L
450.216 164.028 L
453.139 163.274 L
456.061 162.727 L
458.984 162.173 L
461.907 161.686 L
464.83 161.406 L
467.753 161.356 L
470.676 161.434 L
473.599 161.777 L
476.521 162.145 L
479.444 162.425 L
482.367 162.807 L
485.29 163.105 L
488.213 163.344 L
491.136 163.296 L
494.059 163.203 L
496.981 162.962 L
499.904 162.507 L
502.827 161.904 L
505.75 161.324 L
508.673 160.523 L
511.596 159.834 L
514.519 159.045 L
517.441 158.294 L
520.364 157.639 L
523.287 157.04 L
526.21 156.552 L
529.133 156.235 L
532.056 155.95 L
534.979 155.765 L
537.901 155.672 L
540.824 155.726 L
543.747 155.737 L
546.67 155.9 L
549.593 155.95 L
552.516 156.094 L
555.439 156.075 L
558.361 155.961 L
561.284 155.86 L
564.207 155.838 L
567.13 155.791 L
570.053 155.71 L
572.976 155.669 L
575.899 155.693 L
578.821 155.799 L
581.744 155.91 L
584.667 156.034 L
587.59 156.177 L
590.513 156.364 L
593.436 156.582 L
596.359 156.755 L
599.281 156.785 L
602.204 156.831 L
605.127 156.773 L
608.05 156.709 L
610.973 156.594 L
613.896 156.441 L
616.819 156.237 L
619.741 156.076 L
622.664 155.859 L
625.587 155.614 L
628.51 155.322 L
631.433 155.011 L
634.356 154.632 L
637.279 154.254 L
640.201 153.771 L
643.124 153.344 L
646.047 152.886 L
648.97 152.353 L
651.893 151.87 L
654.816 151.413 L
657.739 150.994 L
660.661 150.79 L
663.584 150.488 L
666.507 150.349 L
669.43 150.251 L
672.353 150.239 L
675.276 150.481 L
678.199 150.698 L
681.121 151.016 L
684.044 151.488 L
686.967 152.064 L
689.89 152.805 L
692.813 153.633 L
695.736 154.412 L
698.659 155.186 L
701.581 155.911 L
704.504 156.562 L
707.427 157.138 L
710.35 157.609 L
713.273 157.946 L
716.196 158.137 L
719.119 158.177 L
722.041 158.113 L
724.964 157.876 L
727.887 157.622 L
730.81 157.243 L
733.733 156.785 L
736.656 156.267 L
739.579 155.865 L
742.501 155.401 L
745.424 155.124 L
748.347 154.925 L
751.27 154.924 L
754.193 154.967 L
757.116 155.362 L
760.039 155.777 L
762.961 156.381 L
765.884 157.099 L
768.807 157.844 L
771.73 158.68 L
774.653 159.513 L
777.576 160.302 L
780.499 160.961 L
783.421 161.585 L
786.344 162.037 L
789.267 162.554 L
792.19 162.774 L
795.113 162.836 L
798.036 162.858 L
800.959 162.713 L
803.881 162.542 L
806.804 162.257 L
809.727 161.937 L
812.65 161.582 L
815.573 161.44 L
818.496 161.148 L
821.419 160.972 L
824.341 160.762 L
827.264 160.518 L
830.187 160.362 L
833.11 160.167 L
836.033 159.987 L
838.956 159.855 L
841.879 159.72 L
844.801 159.555 L
847.724 159.379 L
850.647 159.127 L
853.57 158.847 L
856.493 158.668 L
859.416 158.299 L
862.339 158.05 L
865.261 157.798 L
868.184 157.545 L
871.107 157.332 L
874.03 157.216 L
876.953 157.082 L
879.876 157.241 L
882.799 157.918 L
885.721 159.295 L
888.644 162.069 L
891.567 166.524 L
894.49 173.029 L
897.413 181.542 L
900.336 192.657 L
903.259 206.677 L
906.181 224.411 L
909.104 245.809 L
912.027 271.309 L
914.95 300.657 L
917.873 333.616 L
920.796 369.508 L
923.719 407.31 L
926.641 445.179 L
929.564 482.086 L
932.487 516.457 L
935.41 547.358 L
938.333 573.298 L
941.256 592.811 L
944.179 605.075 L
947.101 609.925 L
950.024 606.597 L
952.947 595.61 L
955.87 577.425 L
958.793 552.899 L
961.716 523.179 L
964.639 489.615 L
967.561 453.592 L
970.484 416.4 L
973.407 379.415 L
976.33 343.687 L
979.253 310.284 L
982.176 280.16 L
985.099 253.745 L
988.021 231.119 L
990.944 212.199 L
993.867 196.672 L
996.79 184.288 L
999.713 174.537 L
1002.636 167.104 L
1005.559 161.539 L
1008.481 157.517 L
1011.404 154.766 L
1014.327 153.253 L
1017.25 152.376 L
1020.173 151.898 L
1023.096 151.425 L
1026.019 151.1 L
1028.941 150.976 L
1031.864 150.861 L
1034.787 150.663 L
1037.71 150.633 L
1040.633 150.655 L
1043.556 150.707 L
1046.479 150.815 L
1049.401 151.097 L
1052.324 151.475 L
1055.247 151.937 L
1058.17 152.385 L
1061.093 152.964 L
1064.016 153.601 L
1066.939 154.317 L
1069.861 155.006 L
1072.784 155.984 L
1075.707 156.863 L
1078.63 157.937 L
1081.553 158.866 L
1084.476 159.743 L
1087.399 160.786 L
1090.321 161.609 L
1093.244 162.339 L
1096.167 162.928 L
1099.09 163.407 L
1102.013 163.772 L
1104.936 164.157 L
1107.859 164.318 L
1110.781 164.456 L
1113.704 164.428 L
1116.627 164.516 L
1119.55 164.432 L
1122.473 164.296 L
1125.396 164.188 L
1128.319 163.956 L
1131.241 163.685 L
1134.164 163.427 L
1137.087 163.149 L
1140.01 162.793 L
1142.933 162.443 L
1145.856 162.243 L
1148.779 162.056 L
1151.701 161.804 L
1154.624 161.626 L
1157.547 161.428 L
1160.47 161.15 L
1163.393 161.024 L
1166.316 160.868 L
1169.239 160.881 L
1172.161 160.871 L
1175.084 160.722 L
1178.007 160.674 L
1180.93 160.626 L
1183.853 160.65 L
1186.776 160.719 L
1189.699 160.718 L
1192.621 160.688 L
1195.544 160.725 L
1198.467 160.711 L
1201.39 160.705 L
1204.313 160.712 L
1207.236 160.838 L
1210.159 160.895 L
1213.081 160.931 L
1216.004 161.022 L
1218.927 161.043 L
1221.85 161.01 L
1224.773 160.99 L
1227.696 161.011 L
1230.619 161.023 L
1233.541 161.046 L
1236.464 161.13 L
1239.387 161.218 L
1242.31 161.262 L
1245.233 161.336 L
1248.156 161.393 L
1251.078 161.415 L
1254.001 161.41 L
1256.924 161.419 L
1259.847 161.487 L
1262.77 161.668 L
1265.693 161.88 L
1268.616 162.342 L
1271.539 162.72 L
1274.461 163.323 L
1277.384 164.081 L
1280.307 164.819 L
1283.23 165.634 L
1286.153 166.454 L
1289.076 167.404 L
1291.999 168.145 L
1294.922 168.951 L
1297.844 169.574 L
1300.767 170.021 L
1303.69 170.381 L
1306.613 170.495 L
1309.536 170.518 L
1312.459 170.19 L
1315.381 169.769 L
1318.304 169.097 L
1321.227 168.289 L
1324.15 167.421 L
1327.073 166.528 L
1329.996 165.86 L
1332.919 165.148 L
1335.841 164.447 L
1338.764 163.841 L
1341.687 163.355 L
1344.61 162.953 L
1347.533 162.75 L
1350.456 162.513 L
1353.379 162.398 L
1356.301 162.175 L
1359.224 162.182 L
1362.147 161.997 L
1365.07 161.812 L
1367.993 161.721 L
1370.916 161.594 L
1373.839 161.422 L
1376.761 161.07 L
1379.684 160.93 L
1382.607 160.744 L
1385.53 160.621 L
1388.453 160.546 L
1391.376 160.563 L
1394.299 160.814 L
1397.221 160.947 L
1400.144 161.385 L
1403.067 161.685 L
1405.99 162.074 L
1408.913 162.552 L
1411.836 162.99 L
1414.759 163.344 L
1417.681 163.726 L
1420.604 164.027 L
1423.527 164.317 L
1426.45 164.536 L
1429.373 164.677 L
1432.296 164.756 L
1435.219 164.699 L
1438.141 164.651 L
1441.064 164.452 L
1443.987 164.228 L
1446.91 163.751 L
1449.833 163.213 L
1452.756 162.513 L
1455.679 161.641 L
1458.601 160.744 L
1461.524 159.886 L
1464.447 158.975 L
1467.37 158.068 L
1470.293 157.301 L
1473.216 156.629 L
1476.139 156.069 L
1479.061 155.653 L
1481.984 155.31 L
1484.907 155.177 L
1487.83 155.115 L
1490.753 155.177 L
1493.676 155.258 L
1496.599 155.402 L
1499.521 155.53 L
1502.444 155.681 L
1505.367 155.925 L
1508.29 156.102 L
1511.213 156.243 L
1514.136 156.423 L
1517.059 156.56 L
1519.981 156.705 L
1522.904 156.861 L
1525.827 157.054 L
1528.75 157.249 L
1531.673 157.43 L
1534.596 157.592 L
1537.519 157.681 L
1540.441 157.876 L
1543.364 157.858 L
1546.287 157.723 L
1549.21 157.598 L
1552.133 157.412 L
1555.056 157.318 L
1557.979 157.1 L
1560.901 156.947 L
1563.824 156.839 L
1566.747 156.737 L
1569.67 156.748 L
1572.593 156.769 L
1575.516 156.793 L
1578.439 156.838 L
1581.361 156.842 L
1584.284 156.821 L
1587.207 156.915 L
1590.13 156.963 L
1593.053 156.873 L
1595.976 156.864 L
1598.899 156.899 L
1601.821 156.881 L
1604.744 156.94 L
1607.667 157.055 L
1610.59 157.232 L
1613.513 157.518 L
1616.436 157.818 L
1619.359 158.181 L
1622.281 158.704 L
1625.204 159.043 L
1628.127 159.224 L
1631.05 159.525 L
1633.973 159.648 L
1636.896 159.787 L
1639.819 159.838 L
1642.741 159.735 L
1645.664 159.741 L
1648.587 159.732 L
1651.51 159.689 L
1654.433 159.656 L
1657.356 159.598 L
1660.279 159.577 L
1663.201 159.477 L
1666.124 159.426 L
1669.047 159.42 L
1671.97 159.306 L
1674.893 159.044 L
1677.816 158.902 L
1680.739 158.705 L
1683.661 158.556 L
1686.584 158.409 L
1689.507 158.415 L
1692.43 158.499 L
1695.353 158.676 L
1698.276 158.923 L
1701.199 159.116 L
1704.121 159.357 L
1707.044 159.592 L
1709.967 159.744 L
1712.89 159.961 L
1715.813 160.097 L
1718.736 160.103 L
1721.659 160.099 L
1724.581 159.942 L
1727.504 159.822 L
1730.427 159.674 L
1733.35 159.464 L
1736.273 159.241 L
1738.177 159.102 L
S
GR
GS
[0.9 0 0 0.9 310.85228 291.79855] CT
/Helvetica 33.333 F
GS
[1 0 0 1 0 0] CT
0 13 moveto 
1 -1 scale
(0.8) t 
GR
GR
GS
[0.9 0 0 0.9 863.27232 548.93265] CT
/Helvetica 33.333 F
GS
[1 0 0 1 0 0] CT
0 13 moveto 
1 -1 scale
(6.6) t 
GR
GR
%%Trailer
%%Pages: 1
%%EOF
